{
    "sentences": [
        [
            [
                "Đơn",
                "O"
            ],
            [
                "kiến",
                "O"
            ],
            [
                "nghị",
                "O"
            ],
            [
                "đã",
                "O"
            ],
            [
                "thu",
                "O"
            ],
            [
                "được",
                "O"
            ],
            [
                "gần",
                "O"
            ],
            [
                "ba",
                "O"
            ],
            [
                "triệu",
                "O"
            ],
            [
                "chữ",
                "O"
            ],
            [
                "ký",
                "O"
            ],
            [
                ".",
                "O"
            ],
            [
                "Theo",
                "O"
            ],
            [
                "quy",
                "O"
            ],
            [
                "định",
                "O"
            ],
            [
                ",",
                "O"
            ],
            [
                "nếu",
                "O"
            ],
            [
                "đơn",
                "O"
            ],
            [
                "kiến",
                "O"
            ],
            [
                "nghị",
                "O"
            ],
            [
                "thu",
                "O"
            ],
            [
                "hút",
                "O"
            ],
            [
                "100.000",
                "O"
            ],
            [
                "chữ",
                "O"
            ],
            [
                "ký",
                "O"
            ],
            [
                ",",
                "O"
            ],
            [
                "vấn",
                "O"
            ],
            [
                "đề",
                "O"
            ],
            [
                "sẽ",
                "O"
            ],
            [
                "được",
                "O"
            ],
            [
                "quốc",
                "O"
            ],
            [
                "hội",
                "O"
            ],
            [
                "Anh",
                "O"
            ],
            [
                "xem",
                "O"
            ],
            [
                "xét",
                "O"
            ],
            [
                "để",
                "O"
            ],
            [
                "đưa",
                "O"
            ],
            [
                "ra",
                "O"
            ],
            [
                "tranh",
                "O"
            ],
            [
                "luận",
                "O"
            ],
            [
                ".",
                "O"
            ],
            [
                "Ảnh",
                "O"
            ],
            [
                "chụp",
                "O"
            ],
            [
                "màn",
                "O"
            ],
            [
                "hình",
                "O"
            ]
        ],
        [
            [
                "Gần",
                "O"
            ],
            [
                "ba",
                "O"
            ],
            [
                "triệu",
                "O"
            ],
            [
                "người",
                "O"
            ],
            [
                "đã",
                "O"
            ],
            [
                "ký",
                "O"
            ],
            [
                "vào",
                "O"
            ],
            [
                "thư",
                "O"
            ],
            [
                "kiến",
                "O"
            ],
            [
                "nghị",
                "O"
            ],
            [
                "trên",
                "O"
            ],
            [
                "trang",
                "O"
            ],
            [
                "web",
                "O"
            ],
            [
                "của",
                "O"
            ],
            [
                "quốc",
                "O"
            ],
            [
                "hội",
                "O"
            ],
            [
                "Anh",
                "O"
            ],
            [
                ",",
                "O"
            ],
            [
                "yêu",
                "O"
            ],
            [
                "cầu",
                "O"
            ],
            [
                "tổ",
                "O"
            ],
            [
                "chức",
                "O"
            ],
            [
                "một",
                "O"
            ],
            [
                "cuộc",
                "O"
            ],
            [
                "trưng",
                "O"
            ],
            [
                "cầu",
                "O"
            ],
            [
                "dân",
                "O"
            ],
            [
                "ý",
                "O"
            ],
            [
                "thứ",
                "O"
            ],
            [
                "hai",
                "O"
            ],
            [
                "về",
                "O"
            ],
            [
                "việc",
                "O"
            ],
            [
                "Anh",
                "O"
            ],
            [
                "đi",
                "O"
            ],
            [
                "hay",
                "O"
            ],
            [
                "ở",
                "O"
            ],
            [
                "EU",
                "B-LOC"
            ],
            [
                ".",
                "O"
            ],
            [
                "Đây",
                "O"
            ],
            [
                "là",
                "O"
            ],
            [
                "thư",
                "O"
            ],
            [
                "kiến",
                "O"
            ],
            [
                "nghị",
                "O"
            ],
            [
                "thu",
                "O"
            ],
            [
                "hút",
                "O"
            ],
            [
                "nhiều",
                "O"
            ],
            [
                "sự",
                "O"
            ],
            [
                "ủng",
                "O"
            ],
            [
                "hộ",
                "O"
            ],
            [
                "nhất",
                "O"
            ],
            [
                "trên",
                "O"
            ],
            [
                "trang",
                "O"
            ],
            [
                "web",
                "O"
            ],
            [
                "này",
                "O"
            ],
            [
                "từ",
                "O"
            ],
            [
                "trước",
                "O"
            ],
            [
                "đến",
                "O"
            ],
            [
                "nay",
                "O"
            ],
            [
                ".",
                "O"
            ]
        ],
        [
            [
                "Người",
                "O"
            ],
            [
                "viết",
                "O"
            ],
            [
                "bản",
                "O"
            ],
            [
                "kiến",
                "O"
            ],
            [
                "​",
                "O"
            ],
            [
                "​",
                "O"
            ],
            [
                "nghị",
                "O"
            ],
            [
                ",",
                "O"
            ],
            [
                "William",
                "B-ORG"
            ],
            [
                "Oliver",
                "I-ORG"
            ],
            [
                "Healey",
                "I-ORG"
            ],
            [
                ",",
                "O"
            ],
            [
                "cho",
                "O"
            ],
            [
                "rằng",
                "O"
            ],
            [
                "chính",
                "O"
            ],
            [
                "phủ",
                "O"
            ],
            [
                "cần",
                "O"
            ],
            [
                "tổ",
                "O"
            ],
            [
                "chức",
                "O"
            ],
            [
                "lại",
                "O"
            ],
            [
                "trưng",
                "O"
            ],
            [
                "cầu",
                "O"
            ],
            [
                "dân",
                "O"
            ],
            [
                "ý",
                "O"
            ],
            [
                "vì",
                "O"
            ],
            [
                "tỷ",
                "O"
            ],
            [
                "lệ",
                "O"
            ],
            [
                "bỏ",
                "O"
            ],
            [
                "phiếu",
                "O"
            ],
            [
                "chiến",
                "O"
            ],
            [
                "thắng",
                "O"
            ],
            [
                "chưa",
                "O"
            ],
            [
                "vượt",
                "O"
            ],
            [
                "quá",
                "O"
            ],
            [
                "60%",
                "O"
            ],
            [
                "và",
                "O"
            ],
            [
                "tỷ",
                "O"
            ],
            [
                "lệ",
                "O"
            ],
            [
                "người",
                "O"
            ],
            [
                "đi",
                "O"
            ],
            [
                "bầu",
                "O"
            ],
            [
                "dưới",
                "O"
            ],
            [
                "75%",
                "O"
            ],
            [
                ".",
                "O"
            ],
            [
                "Nhiều",
                "O"
            ],
            [
                "người",
                "O"
            ],
            [
                "Anh",
                "O"
            ],
            [
                "cũng",
                "O"
            ],
            [
                "bày",
                "O"
            ],
            [
                "tỏ",
                "O"
            ],
            [
                "sự",
                "O"
            ],
            [
                "hối",
                "O"
            ],
            [
                "tiếc",
                "O"
            ],
            [
                "khi",
                "O"
            ],
            [
                "chọn",
                "O"
            ],
            [
                "rời",
                "O"
            ],
            [
                "khỏi",
                "O"
            ],
            [
                "EU",
                "O"
            ],
            [
                "vì",
                "O"
            ],
            [
                "sẽ",
                "O"
            ],
            [
                "mất",
                "O"
            ],
            [
                "những",
                "O"
            ],
            [
                "đặc",
                "O"
            ],
            [
                "quyền",
                "O"
            ],
            [
                "và",
                "O"
            ],
            [
                "lợi",
                "O"
            ],
            [
                "ích",
                "O"
            ],
            [
                "mà",
                "O"
            ],
            [
                "liên",
                "O"
            ],
            [
                "minh",
                "O"
            ],
            [
                "cung",
                "O"
            ],
            [
                "cấp",
                "O"
            ],
            [
                ".",
                "O"
            ]
        ],
        [
            [
                "Trong",
                "O"
            ],
            [
                "cuộc",
                "O"
            ],
            [
                "trưng",
                "O"
            ],
            [
                "cầu",
                "O"
            ],
            [
                "dân",
                "O"
            ],
            [
                "ý",
                "O"
            ],
            [
                "hôm",
                "B-TIME"
            ],
            [
                "23\/6",
                "I-TIME"
            ],
            [
                ",",
                "O"
            ],
            [
                "17,4",
                "O"
            ],
            [
                "triệu",
                "O"
            ],
            [
                "người",
                "O"
            ],
            [
                "(",
                "O"
            ],
            [
                "51.9%",
                "O"
            ],
            [
                ")",
                "O"
            ],
            [
                "đã",
                "O"
            ],
            [
                "bỏ",
                "O"
            ],
            [
                "phiếu",
                "O"
            ],
            [
                "rời",
                "O"
            ],
            [
                "khỏi",
                "O"
            ],
            [
                "EU",
                "B-LOC"
            ],
            [
                ",",
                "O"
            ],
            [
                "so",
                "O"
            ],
            [
                "với",
                "O"
            ],
            [
                "16,1",
                "O"
            ],
            [
                "triệu",
                "O"
            ],
            [
                "người",
                "O"
            ],
            [
                "(",
                "O"
            ],
            [
                "48,1%",
                "O"
            ],
            [
                ")",
                "O"
            ],
            [
                "chọn",
                "O"
            ],
            [
                "ở",
                "O"
            ],
            [
                "lại",
                "O"
            ],
            [
                ",",
                "O"
            ],
            [
                "với",
                "O"
            ],
            [
                "tỷ",
                "O"
            ],
            [
                "lệ",
                "O"
            ],
            [
                "người",
                "O"
            ],
            [
                "đi",
                "O"
            ],
            [
                "bầu",
                "O"
            ],
            [
                "72,2%",
                "O"
            ],
            [
                ",",
                "O"
            ],
            [
                "theo",
                "O"
            ],
            [
                "Ủy",
                "B-ORG"
            ],
            [
                "ban",
                "I-ORG"
            ],
            [
                "Bầu",
                "I-ORG"
            ],
            [
                "cử",
                "I-ORG"
            ],
            [
                "Anh",
                "I-ORG"
            ],
            [
                ".",
                "O"
            ]
        ],
        [
            [
                "Theo",
                "O"
            ],
            [
                "Telegraph",
                "B-ORG"
            ],
            [
                ",",
                "O"
            ],
            [
                "giáo",
                "O"
            ],
            [
                "sư",
                "O"
            ],
            [
                "Vernon",
                "B-ORG"
            ],
            [
                "Bogdanor",
                "I-ORG"
            ],
            [
                ",",
                "O"
            ],
            [
                "một",
                "O"
            ],
            [
                "trong",
                "O"
            ],
            [
                "những",
                "O"
            ],
            [
                "chuyên",
                "O"
            ],
            [
                "gia",
                "O"
            ],
            [
                "hiến",
                "O"
            ],
            [
                "pháp",
                "O"
            ],
            [
                "hàng",
                "O"
            ],
            [
                "đầu",
                "O"
            ],
            [
                "của",
                "O"
            ],
            [
                "Anh",
                "O"
            ],
            [
                ",",
                "O"
            ],
            [
                "cho",
                "O"
            ],
            [
                "rằng",
                "O"
            ],
            [
                "rất",
                "O"
            ],
            [
                "khó",
                "O"
            ],
            [
                "xảy",
                "O"
            ],
            [
                "ra",
                "O"
            ],
            [
                "một",
                "O"
            ],
            [
                "cuộc",
                "O"
            ],
            [
                "trưng",
                "O"
            ],
            [
                "cầu",
                "O"
            ],
            [
                "thứ",
                "O"
            ],
            [
                "hai",
                "O"
            ],
            [
                ".",
                "O"
            ]
        ],
        [
            [
                "\"",
                "O"
            ],
            [
                "Tôi",
                "O"
            ],
            [
                "cho",
                "O"
            ],
            [
                "rằng",
                "O"
            ],
            [
                "EU",
                "O"
            ],
            [
                "sẽ",
                "O"
            ],
            [
                "không",
                "O"
            ],
            [
                "muốn",
                "O"
            ],
            [
                "'",
                "O"
            ],
            [
                "mặc",
                "O"
            ],
            [
                "cả",
                "O"
            ],
            [
                "'",
                "O"
            ],
            [
                "thêm",
                "O"
            ],
            [
                "nữa",
                "O"
            ],
            [
                ",",
                "O"
            ],
            [
                "họ",
                "O"
            ],
            [
                "sẽ",
                "O"
            ],
            [
                "xem",
                "O"
            ],
            [
                "kết",
                "O"
            ],
            [
                "quả",
                "O"
            ],
            [
                "cuộc",
                "O"
            ],
            [
                "trưng",
                "O"
            ],
            [
                "cầu",
                "O"
            ],
            [
                "này",
                "O"
            ],
            [
                "là",
                "O"
            ],
            [
                "lựa",
                "O"
            ],
            [
                "chọn",
                "O"
            ],
            [
                "cuối",
                "O"
            ],
            [
                "cùng",
                "O"
            ],
            [
                "\"",
                "O"
            ],
            [
                ",",
                "O"
            ],
            [
                "ông",
                "O"
            ],
            [
                "nói",
                "O"
            ],
            [
                ".",
                "O"
            ]
        ],
        [
            [
                "Giáo",
                "O"
            ],
            [
                "sư",
                "O"
            ],
            [
                "Bogdanor",
                "O"
            ],
            [
                ",",
                "O"
            ],
            [
                "chuyên",
                "O"
            ],
            [
                "gia",
                "O"
            ],
            [
                "về",
                "O"
            ],
            [
                "lịch",
                "O"
            ],
            [
                "sử",
                "O"
            ],
            [
                "lập",
                "O"
            ],
            [
                "hiến",
                "O"
            ],
            [
                "tại",
                "O"
            ],
            [
                "King",
                "O"
            ],
            [
                "’",
                "O"
            ],
            [
                "s",
                "O"
            ],
            [
                "College",
                "B-ORG"
            ],
            [
                "London",
                "I-ORG"
            ],
            [
                ",",
                "O"
            ],
            [
                "cảnh",
                "O"
            ],
            [
                "báo",
                "O"
            ],
            [
                "rằng",
                "O"
            ],
            [
                "chính",
                "O"
            ],
            [
                "phủ",
                "O"
            ],
            [
                "Anh",
                "O"
            ],
            [
                "sẽ",
                "O"
            ],
            [
                "rất",
                "O"
            ],
            [
                "thận",
                "O"
            ],
            [
                "trọng",
                "O"
            ],
            [
                "về",
                "O"
            ],
            [
                "việc",
                "O"
            ],
            [
                "kêu",
                "O"
            ],
            [
                "gọi",
                "O"
            ],
            [
                "trưng",
                "O"
            ],
            [
                "cầu",
                "O"
            ],
            [
                "dân",
                "O"
            ],
            [
                "ý",
                "O"
            ],
            [
                "trong",
                "O"
            ],
            [
                "tương",
                "O"
            ],
            [
                "lai",
                "O"
            ],
            [
                ".",
                "O"
            ]
        ],
        [
            [
                "Giáo",
                "O"
            ],
            [
                "sư",
                "O"
            ],
            [
                "John",
                "O"
            ],
            [
                "Curtice",
                "O"
            ],
            [
                ",",
                "O"
            ],
            [
                "tại",
                "O"
            ],
            [
                "Đại",
                "B-LOC"
            ],
            [
                "học",
                "I-LOC"
            ],
            [
                "Strathclyde",
                "I-LOC"
            ],
            [
                ",",
                "O"
            ],
            [
                "nói",
                "O"
            ],
            [
                "rằng",
                "O"
            ],
            [
                "ngay",
                "O"
            ],
            [
                "trong",
                "O"
            ],
            [
                "nội",
                "O"
            ],
            [
                "bộ",
                "O"
            ],
            [
                "các",
                "O"
            ],
            [
                "chính",
                "O"
            ],
            [
                "đảng",
                "O"
            ],
            [
                "cũng",
                "O"
            ],
            [
                "có",
                "O"
            ],
            [
                "quan",
                "O"
            ],
            [
                "điểm",
                "O"
            ],
            [
                "chia",
                "O"
            ],
            [
                "rẽ",
                "O"
            ],
            [
                "về",
                "O"
            ],
            [
                "vấn",
                "O"
            ],
            [
                "này",
                "O"
            ],
            [
                ",",
                "O"
            ],
            [
                "và",
                "O"
            ],
            [
                "những",
                "O"
            ],
            [
                "người",
                "O"
            ],
            [
                "ủng",
                "O"
            ],
            [
                "hộ",
                "O"
            ],
            [
                "của",
                "O"
            ],
            [
                "các",
                "O"
            ],
            [
                "đảng",
                "O"
            ],
            [
                "khó",
                "O"
            ],
            [
                "có",
                "O"
            ],
            [
                "khả",
                "O"
            ],
            [
                "năng",
                "O"
            ],
            [
                "mở",
                "O"
            ],
            [
                "ra",
                "O"
            ],
            [
                "được",
                "O"
            ],
            [
                "các",
                "O"
            ],
            [
                "cuộc",
                "O"
            ],
            [
                "vận",
                "O"
            ],
            [
                "động",
                "O"
            ],
            [
                ",",
                "O"
            ],
            [
                "chưa",
                "O"
            ],
            [
                "nói",
                "O"
            ],
            [
                "đến",
                "O"
            ],
            [
                "mở",
                "O"
            ],
            [
                "ra",
                "O"
            ],
            [
                "thêm",
                "O"
            ],
            [
                "một",
                "O"
            ],
            [
                "cuộc",
                "O"
            ],
            [
                "trưng",
                "O"
            ],
            [
                "cầu",
                "O"
            ],
            [
                "nữa",
                "O"
            ],
            [
                ".",
                "O"
            ]
        ],
        [
            [
                "\"",
                "O"
            ],
            [
                "Bao",
                "O"
            ],
            [
                "nhiêu",
                "O"
            ],
            [
                "người",
                "O"
            ],
            [
                "đã",
                "O"
            ],
            [
                "bỏ",
                "O"
            ],
            [
                "phiếu",
                "O"
            ],
            [
                "ủng",
                "O"
            ],
            [
                "hộ",
                "O"
            ],
            [
                "ra",
                "O"
            ],
            [
                "đi",
                "O"
            ],
            [
                "?",
                "O"
            ],
            [
                "17",
                "O"
            ],
            [
                "triệu",
                "O"
            ],
            [
                "người",
                "O"
            ],
            [
                "đấy",
                "O"
            ],
            [
                "\"",
                "O"
            ],
            [
                ",",
                "O"
            ],
            [
                "ông",
                "O"
            ],
            [
                "nói",
                "O"
            ],
            [
                ".",
                "O"
            ],
            [
                "\"",
                "O"
            ],
            [
                "Bây",
                "O"
            ],
            [
                "giờ",
                "O"
            ],
            [
                "họ",
                "O"
            ],
            [
                "ký",
                "O"
            ],
            [
                "vào",
                "O"
            ],
            [
                "bản",
                "O"
            ],
            [
                "kiến",
                "O"
            ],
            [
                "nghị",
                "O"
            ],
            [
                "cũng",
                "O"
            ],
            [
                "chả",
                "O"
            ],
            [
                "ích",
                "O"
            ],
            [
                "gì",
                "O"
            ],
            [
                ",",
                "O"
            ],
            [
                "họ",
                "O"
            ],
            [
                "nhẽ",
                "O"
            ],
            [
                "ra",
                "O"
            ],
            [
                "nên",
                "O"
            ],
            [
                "làm",
                "O"
            ],
            [
                "việc",
                "O"
            ],
            [
                "đó",
                "O"
            ],
            [
                "trước",
                "O"
            ],
            [
                ".",
                "O"
            ],
            [
                "Nhưng",
                "O"
            ],
            [
                "ngay",
                "O"
            ],
            [
                "cả",
                "O"
            ],
            [
                "khi",
                "O"
            ],
            [
                "đó",
                "O"
            ],
            [
                ",",
                "O"
            ],
            [
                "những",
                "O"
            ],
            [
                "kiến",
                "O"
            ],
            [
                "​",
                "O"
            ],
            [
                "​",
                "O"
            ],
            [
                "nghị",
                "O"
            ],
            [
                "như",
                "O"
            ],
            [
                "thế",
                "O"
            ],
            [
                "này",
                "O"
            ],
            [
                "không",
                "O"
            ],
            [
                "phải",
                "O"
            ],
            [
                "lúc",
                "O"
            ],
            [
                "nào",
                "O"
            ],
            [
                "cũng",
                "O"
            ],
            [
                "có",
                "O"
            ],
            [
                "tác",
                "O"
            ],
            [
                "dụng",
                "O"
            ],
            [
                ".",
                "O"
            ]
        ],
        [
            [
                "\"",
                "O"
            ],
            [
                "Nếu",
                "O"
            ],
            [
                "Boris",
                "B-PER"
            ],
            [
                "Johnson",
                "I-PER"
            ],
            [
                "(",
                "O"
            ],
            [
                "cựu",
                "O"
            ],
            [
                "thị",
                "O"
            ],
            [
                "trưởng",
                "O"
            ],
            [
                "London",
                "O"
            ],
            [
                "dẫn",
                "O"
            ],
            [
                "dầu",
                "O"
            ],
            [
                "chiến",
                "O"
            ],
            [
                "dịch",
                "O"
            ],
            [
                "đưa",
                "O"
            ],
            [
                "Anh",
                "O"
            ],
            [
                "rời",
                "O"
            ],
            [
                "EU",
                "B-ORG"
            ],
            [
                ")",
                "O"
            ],
            [
                "trở",
                "O"
            ],
            [
                "thành",
                "O"
            ],
            [
                "người",
                "O"
            ],
            [
                "đứng",
                "O"
            ],
            [
                "đầu",
                "O"
            ],
            [
                "chính",
                "O"
            ],
            [
                "phủ",
                "O"
            ],
            [
                "và",
                "O"
            ],
            [
                "nếu",
                "O"
            ],
            [
                "thủ",
                "O"
            ],
            [
                "tục",
                "O"
            ],
            [
                "cho",
                "O"
            ],
            [
                "cuộc",
                "O"
            ],
            [
                "chia",
                "O"
            ],
            [
                "tay",
                "O"
            ],
            [
                "kéo",
                "O"
            ],
            [
                "dài",
                "O"
            ],
            [
                ",",
                "O"
            ],
            [
                "hai",
                "B-TIME"
            ],
            [
                "năm",
                "I-TIME"
            ],
            [
                "sau",
                "I-TIME"
            ],
            [
                ",",
                "O"
            ],
            [
                "chúng",
                "O"
            ],
            [
                "ta",
                "O"
            ],
            [
                "có",
                "O"
            ],
            [
                "thể",
                "O"
            ],
            [
                "có",
                "O"
            ],
            [
                "một",
                "O"
            ],
            [
                "cuộc",
                "O"
            ],
            [
                "thăm",
                "O"
            ],
            [
                "dò",
                "O"
            ],
            [
                "cho",
                "O"
            ],
            [
                "thấy",
                "O"
            ],
            [
                "người",
                "O"
            ],
            [
                "dân",
                "O"
            ],
            [
                "Anh",
                "O"
            ],
            [
                "thực",
                "O"
            ],
            [
                "sự",
                "O"
            ],
            [
                "muốn",
                "O"
            ],
            [
                "đảo",
                "O"
            ],
            [
                "ngược",
                "O"
            ],
            [
                "quyết",
                "O"
            ],
            [
                "định",
                "O"
            ],
            [
                "và",
                "O"
            ],
            [
                "ở",
                "O"
            ],
            [
                "lại",
                "O"
            ],
            [
                "với",
                "O"
            ],
            [
                "EU",
                "B-LOC"
            ],
            [
                "\"",
                "O"
            ],
            [
                ",",
                "O"
            ],
            [
                "ông",
                "O"
            ],
            [
                "nhận",
                "O"
            ],
            [
                "xét",
                "O"
            ],
            [
                ".",
                "O"
            ]
        ],
        [
            [
                "\"",
                "O"
            ],
            [
                "Sau",
                "O"
            ],
            [
                "đó",
                "O"
            ],
            [
                ",",
                "O"
            ],
            [
                "có",
                "O"
            ],
            [
                "thể",
                "O"
            ],
            [
                "có",
                "O"
            ],
            [
                "tình",
                "O"
            ],
            [
                "huống",
                "O"
            ],
            [
                "là",
                "O"
            ],
            [
                "đảng",
                "O"
            ],
            [
                "đối",
                "O"
            ],
            [
                "lập",
                "O"
            ],
            [
                "trong",
                "O"
            ],
            [
                "cuộc",
                "O"
            ],
            [
                "tổng",
                "O"
            ],
            [
                "tuyển",
                "O"
            ],
            [
                "cử",
                "O"
            ],
            [
                "sẽ",
                "O"
            ],
            [
                "thúc",
                "O"
            ],
            [
                "giục",
                "O"
            ],
            [
                "tổ",
                "O"
            ],
            [
                "chức",
                "O"
            ],
            [
                "một",
                "O"
            ],
            [
                "cuộc",
                "O"
            ],
            [
                "trưng",
                "O"
            ],
            [
                "cầu",
                "O"
            ],
            [
                "dân",
                "O"
            ],
            [
                "ý",
                "O"
            ],
            [
                "mới",
                "O"
            ],
            [
                "\"",
                "O"
            ],
            [
                ",",
                "O"
            ],
            [
                "giáo",
                "O"
            ],
            [
                "sư",
                "O"
            ],
            [
                "nói",
                "O"
            ],
            [
                "thêm",
                "O"
            ],
            [
                ".",
                "O"
            ]
        ],
        [
            [
                "Không",
                "O"
            ],
            [
                "ràng",
                "O"
            ],
            [
                "buộc",
                "O"
            ]
        ],
        [
            [
                "Thực",
                "O"
            ],
            [
                "tế",
                "O"
            ],
            [
                ",",
                "O"
            ],
            [
                "kết",
                "O"
            ],
            [
                "quả",
                "O"
            ],
            [
                "trưng",
                "O"
            ],
            [
                "cầu",
                "O"
            ],
            [
                "dân",
                "O"
            ],
            [
                "ý",
                "O"
            ],
            [
                "không",
                "O"
            ],
            [
                "có",
                "O"
            ],
            [
                "tính",
                "O"
            ],
            [
                "ràng",
                "O"
            ],
            [
                "buộc",
                "O"
            ],
            [
                "về",
                "O"
            ],
            [
                "pháp",
                "O"
            ],
            [
                "lý",
                "O"
            ],
            [
                ".",
                "O"
            ],
            [
                "Về",
                "O"
            ],
            [
                "lý",
                "O"
            ],
            [
                "thuyết",
                "O"
            ],
            [
                ",",
                "O"
            ],
            [
                "Thủ",
                "O"
            ],
            [
                "tướng",
                "O"
            ],
            [
                "Anh",
                "O"
            ],
            [
                "có",
                "O"
            ],
            [
                "thể",
                "O"
            ],
            [
                "bỏ",
                "O"
            ],
            [
                "qua",
                "O"
            ],
            [
                "kết",
                "O"
            ],
            [
                "quả",
                "O"
            ],
            [
                "trưng",
                "O"
            ],
            [
                "cầu",
                "O"
            ],
            [
                "dân",
                "O"
            ],
            [
                "ý",
                "O"
            ],
            [
                "và",
                "O"
            ],
            [
                "đưa",
                "O"
            ],
            [
                "câu",
                "O"
            ],
            [
                "hỏi",
                "O"
            ],
            [
                "ra",
                "O"
            ],
            [
                "tranh",
                "O"
            ],
            [
                "luận",
                "O"
            ],
            [
                "trước",
                "O"
            ],
            [
                "quốc",
                "O"
            ],
            [
                "hội",
                "O"
            ],
            [
                ".",
                "O"
            ]
        ],
        [
            [
                "Điều",
                "O"
            ],
            [
                "50",
                "O"
            ],
            [
                "trong",
                "O"
            ],
            [
                "Hiệp",
                "B-ORG"
            ],
            [
                "ước",
                "I-ORG"
            ],
            [
                "Lisbon",
                "I-ORG"
            ],
            [
                "của",
                "I-ORG"
            ],
            [
                "EU",
                "I-ORG"
            ],
            [
                "quy",
                "O"
            ],
            [
                "định",
                "O"
            ],
            [
                "bất",
                "O"
            ],
            [
                "kỳ",
                "O"
            ],
            [
                "quốc",
                "O"
            ],
            [
                "gia",
                "O"
            ],
            [
                "thành",
                "O"
            ],
            [
                "viên",
                "O"
            ],
            [
                "nào",
                "O"
            ],
            [
                "cũng",
                "O"
            ],
            [
                "có",
                "O"
            ],
            [
                "thể",
                "O"
            ],
            [
                "rút",
                "O"
            ],
            [
                "khỏi",
                "O"
            ],
            [
                "EU",
                "B-LOC"
            ],
            [
                ".",
                "O"
            ],
            [
                "Ông",
                "O"
            ],
            [
                "Cameron",
                "B-ORG"
            ],
            [
                "có",
                "O"
            ],
            [
                "thể",
                "O"
            ],
            [
                "quyết",
                "O"
            ],
            [
                "định",
                "O"
            ],
            [
                "khi",
                "O"
            ],
            [
                "nào",
                "O"
            ],
            [
                "\"",
                "O"
            ],
            [
                "kích",
                "O"
            ],
            [
                "hoạt",
                "O"
            ],
            [
                "\"",
                "O"
            ],
            [
                "Điều",
                "O"
            ],
            [
                "50",
                "O"
            ],
            [
                ",",
                "O"
            ],
            [
                "tức",
                "O"
            ],
            [
                "là",
                "O"
            ],
            [
                "thông",
                "O"
            ],
            [
                "báo",
                "O"
            ],
            [
                "chính",
                "O"
            ],
            [
                "thức",
                "O"
            ],
            [
                "đến",
                "O"
            ],
            [
                "EU",
                "B-ORG"
            ],
            [
                "rằng",
                "O"
            ],
            [
                "Anh",
                "O"
            ],
            [
                "muốn",
                "O"
            ],
            [
                "rời",
                "O"
            ],
            [
                "khỏi",
                "O"
            ],
            [
                "liên",
                "O"
            ],
            [
                "minh",
                "O"
            ],
            [
                ",",
                "O"
            ],
            [
                "bắt",
                "O"
            ],
            [
                "đầu",
                "O"
            ],
            [
                "giai",
                "O"
            ],
            [
                "đoạn",
                "O"
            ],
            [
                "đàm",
                "O"
            ],
            [
                "phán",
                "O"
            ],
            [
                "kéo",
                "O"
            ],
            [
                "dài",
                "O"
            ],
            [
                "hai",
                "B-TIME"
            ],
            [
                "năm",
                "I-TIME"
            ],
            [
                "về",
                "O"
            ],
            [
                "thỏa",
                "O"
            ],
            [
                "thuận",
                "O"
            ],
            [
                "cho",
                "O"
            ],
            [
                "cuộc",
                "O"
            ],
            [
                "chia",
                "O"
            ],
            [
                "tay",
                "O"
            ],
            [
                ".",
                "O"
            ],
            [
                "Ông",
                "O"
            ],
            [
                "vẫn",
                "O"
            ],
            [
                "có",
                "O"
            ],
            [
                "thể",
                "O"
            ],
            [
                "bỏ",
                "O"
            ],
            [
                "qua",
                "O"
            ],
            [
                "kết",
                "O"
            ],
            [
                "quả",
                "O"
            ],
            [
                "trưng",
                "O"
            ],
            [
                "cầu",
                "O"
            ],
            [
                "dân",
                "O"
            ],
            [
                "ý",
                "O"
            ],
            [
                "và",
                "O"
            ],
            [
                "không",
                "O"
            ],
            [
                "thông",
                "O"
            ],
            [
                "báo",
                "O"
            ],
            [
                "cho",
                "O"
            ],
            [
                "EU",
                "B-LOC"
            ],
            [
                ".",
                "O"
            ],
            [
                "Tuy",
                "O"
            ],
            [
                "nhiên",
                "O"
            ],
            [
                ",",
                "O"
            ],
            [
                "trong",
                "O"
            ],
            [
                "thực",
                "O"
            ],
            [
                "tế",
                "O"
            ],
            [
                ",",
                "O"
            ],
            [
                "điều",
                "O"
            ],
            [
                "này",
                "O"
            ],
            [
                "rất",
                "O"
            ],
            [
                "khó",
                "O"
            ],
            [
                "xảy",
                "O"
            ],
            [
                "ra",
                "O"
            ],
            [
                ".",
                "O"
            ]
        ],
        [
            [
                "Ông",
                "O"
            ],
            [
                "Cameron",
                "B-PER"
            ],
            [
                "đã",
                "O"
            ],
            [
                "nói",
                "O"
            ],
            [
                "rằng",
                "O"
            ],
            [
                "ông",
                "O"
            ],
            [
                "sẽ",
                "O"
            ],
            [
                "kích",
                "O"
            ],
            [
                "hoạt",
                "O"
            ],
            [
                "điều",
                "O"
            ],
            [
                "khoản",
                "O"
            ],
            [
                "ngay",
                "O"
            ],
            [
                "lập",
                "O"
            ],
            [
                "tức",
                "O"
            ],
            [
                ",",
                "O"
            ],
            [
                "nếu",
                "O"
            ],
            [
                "kết",
                "O"
            ],
            [
                "quả",
                "O"
            ],
            [
                "trưng",
                "O"
            ],
            [
                "cầu",
                "O"
            ],
            [
                "cho",
                "O"
            ],
            [
                "thấy",
                "O"
            ],
            [
                "người",
                "O"
            ],
            [
                "Anh",
                "O"
            ],
            [
                "chọn",
                "O"
            ],
            [
                "rời",
                "O"
            ],
            [
                "khỏi",
                "O"
            ],
            [
                "EU",
                "B-LOC"
            ],
            [
                ".",
                "O"
            ],
            [
                "Tuy",
                "O"
            ],
            [
                "nhiên",
                "O"
            ],
            [
                ",",
                "O"
            ],
            [
                "có",
                "O"
            ],
            [
                "thể",
                "O"
            ],
            [
                "ông",
                "O"
            ],
            [
                "nói",
                "O"
            ],
            [
                "vậy",
                "O"
            ],
            [
                "với",
                "O"
            ],
            [
                "nghĩa",
                "O"
            ],
            [
                "bóng",
                "O"
            ],
            [
                ",",
                "O"
            ],
            [
                "nhằm",
                "O"
            ],
            [
                "nhấn",
                "O"
            ],
            [
                "mạnh",
                "O"
            ],
            [
                "rằng",
                "O"
            ],
            [
                "cuộc",
                "O"
            ],
            [
                "trưng",
                "O"
            ],
            [
                "cầu",
                "O"
            ],
            [
                "23\/6",
                "O"
            ],
            [
                "sẽ",
                "O"
            ],
            [
                "là",
                "O"
            ],
            [
                "lựa",
                "O"
            ],
            [
                "chọn",
                "O"
            ],
            [
                "cuối",
                "O"
            ],
            [
                "cùng",
                "O"
            ],
            [
                "của",
                "O"
            ],
            [
                "người",
                "O"
            ],
            [
                "dân",
                "O"
            ],
            [
                "Anh",
                "O"
            ],
            [
                ".",
                "O"
            ],
            [
                "Ông",
                "O"
            ],
            [
                "Cameron",
                "B-ORG"
            ],
            [
                "hiện",
                "O"
            ],
            [
                "chưa",
                "O"
            ],
            [
                "kích",
                "O"
            ],
            [
                "hoạt",
                "O"
            ],
            [
                "Điều",
                "O"
            ],
            [
                "50",
                "O"
            ],
            [
                ".",
                "O"
            ]
        ],
        [
            [
                "Khả",
                "O"
            ],
            [
                "năng",
                "O"
            ],
            [
                "quay",
                "O"
            ],
            [
                "lại",
                "O"
            ]
        ],
        [
            [
                "Trong",
                "O"
            ],
            [
                "trường",
                "O"
            ],
            [
                "hợp",
                "O"
            ],
            [
                "Anh",
                "O"
            ],
            [
                "đã",
                "O"
            ],
            [
                "rời",
                "O"
            ],
            [
                "EU",
                "O"
            ],
            [
                "nhưng",
                "O"
            ],
            [
                "sau",
                "O"
            ],
            [
                "đó",
                "O"
            ],
            [
                "muốn",
                "O"
            ],
            [
                "quay",
                "O"
            ],
            [
                "lại",
                "O"
            ],
            [
                ",",
                "O"
            ],
            [
                "họ",
                "O"
            ],
            [
                "hoàn",
                "O"
            ],
            [
                "toàn",
                "O"
            ],
            [
                "có",
                "O"
            ],
            [
                "thể",
                "O"
            ],
            [
                "làm",
                "O"
            ],
            [
                "việc",
                "O"
            ],
            [
                "đó",
                "O"
            ],
            [
                ".",
                "O"
            ],
            [
                "Điều",
                "O"
            ],
            [
                "50",
                "O"
            ],
            [
                "quy",
                "O"
            ],
            [
                "định",
                "O"
            ],
            [
                ":",
                "O"
            ],
            [
                "\"",
                "O"
            ],
            [
                "Nếu",
                "O"
            ],
            [
                "nước",
                "O"
            ],
            [
                "đã",
                "O"
            ],
            [
                "rút",
                "O"
            ],
            [
                "khỏi",
                "O"
            ],
            [
                "liên",
                "O"
            ],
            [
                "minh",
                "O"
            ],
            [
                "muốn",
                "O"
            ],
            [
                "tái",
                "O"
            ],
            [
                "gia",
                "O"
            ],
            [
                "nhập",
                "O"
            ],
            [
                ",",
                "O"
            ],
            [
                "họ",
                "O"
            ],
            [
                "phải",
                "O"
            ],
            [
                "tuân",
                "O"
            ],
            [
                "theo",
                "O"
            ],
            [
                "thủ",
                "O"
            ],
            [
                "tục",
                "O"
            ],
            [
                "được",
                "O"
            ],
            [
                "quy",
                "O"
            ],
            [
                "định",
                "O"
            ],
            [
                "trong",
                "O"
            ],
            [
                "Điều",
                "O"
            ],
            [
                "49",
                "O"
            ],
            [
                "\"",
                "O"
            ],
            [
                ".",
                "O"
            ]
        ],
        [
            [
                "Điều",
                "O"
            ],
            [
                "49",
                "O"
            ],
            [
                "của",
                "O"
            ],
            [
                "Hiệp",
                "B-ORG"
            ],
            [
                "ước",
                "I-ORG"
            ],
            [
                "Lisbon",
                "I-ORG"
            ],
            [
                "quy",
                "O"
            ],
            [
                "định",
                "O"
            ],
            [
                "các",
                "O"
            ],
            [
                "thủ",
                "O"
            ],
            [
                "tục",
                "O"
            ],
            [
                "cho",
                "O"
            ],
            [
                "bất",
                "O"
            ],
            [
                "kỳ",
                "O"
            ],
            [
                "quốc",
                "O"
            ],
            [
                "gia",
                "O"
            ],
            [
                "nào",
                "O"
            ],
            [
                "muốn",
                "O"
            ],
            [
                "gia",
                "O"
            ],
            [
                "nhập",
                "O"
            ],
            [
                "EU",
                "B-LOC"
            ],
            [
                ",",
                "O"
            ],
            [
                "cho",
                "O"
            ],
            [
                "dù",
                "O"
            ],
            [
                "trước",
                "O"
            ],
            [
                "đó",
                "O"
            ],
            [
                "có",
                "O"
            ],
            [
                "là",
                "O"
            ],
            [
                "thành",
                "O"
            ],
            [
                "viên",
                "O"
            ],
            [
                "hay",
                "O"
            ],
            [
                "không",
                "O"
            ],
            [
                ".",
                "O"
            ]
        ],
        [
            [
                "Điều",
                "O"
            ],
            [
                "khoản",
                "O"
            ],
            [
                "này",
                "O"
            ],
            [
                "nói",
                "O"
            ],
            [
                "rằng",
                "O"
            ],
            [
                "nếu",
                "O"
            ],
            [
                "một",
                "O"
            ],
            [
                "quốc",
                "O"
            ],
            [
                "gia",
                "O"
            ],
            [
                "châu",
                "B-LOC"
            ],
            [
                "Âu",
                "I-LOC"
            ],
            [
                "cam",
                "O"
            ],
            [
                "kết",
                "O"
            ],
            [
                "thúc",
                "O"
            ],
            [
                "đẩy",
                "O"
            ],
            [
                "các",
                "O"
            ],
            [
                "giá",
                "O"
            ],
            [
                "trị",
                "O"
            ],
            [
                "\"",
                "O"
            ],
            [
                "nhân",
                "O"
            ],
            [
                "phẩm",
                "O"
            ],
            [
                ",",
                "O"
            ],
            [
                "tự",
                "O"
            ],
            [
                "do",
                "O"
            ],
            [
                ",",
                "O"
            ],
            [
                "dân",
                "O"
            ],
            [
                "chủ",
                "O"
            ],
            [
                ",",
                "O"
            ],
            [
                "bình",
                "O"
            ],
            [
                "đẳng",
                "O"
            ],
            [
                ",",
                "O"
            ],
            [
                "pháp",
                "O"
            ],
            [
                "trị",
                "O"
            ],
            [
                "và",
                "O"
            ],
            [
                "tôn",
                "O"
            ],
            [
                "trọng",
                "O"
            ],
            [
                "nhân",
                "O"
            ],
            [
                "quyền",
                "O"
            ],
            [
                "\"",
                "O"
            ],
            [
                ",",
                "O"
            ],
            [
                "họ",
                "O"
            ],
            [
                "có",
                "O"
            ],
            [
                "thể",
                "O"
            ],
            [
                "nộp",
                "O"
            ],
            [
                "đơn",
                "O"
            ],
            [
                "xin",
                "O"
            ],
            [
                "trở",
                "O"
            ],
            [
                "thành",
                "O"
            ],
            [
                "thành",
                "O"
            ],
            [
                "viên",
                "O"
            ],
            [
                "của",
                "O"
            ],
            [
                "liên",
                "O"
            ],
            [
                "minh",
                "O"
            ],
            [
                ".",
                "O"
            ]
        ],
        [
            [
                "Sau",
                "O"
            ],
            [
                "khi",
                "O"
            ],
            [
                "nhận",
                "O"
            ],
            [
                "được",
                "O"
            ],
            [
                "đơn",
                "O"
            ],
            [
                ",",
                "O"
            ],
            [
                "Hội",
                "B-ORG"
            ],
            [
                "đồng",
                "I-ORG"
            ],
            [
                "châu",
                "I-ORG"
            ],
            [
                "Âu",
                "I-ORG"
            ],
            [
                "sẽ",
                "O"
            ],
            [
                "phải",
                "O"
            ],
            [
                "nhất",
                "O"
            ],
            [
                "trí",
                "O"
            ],
            [
                "về",
                "O"
            ],
            [
                "quyết",
                "O"
            ],
            [
                "định",
                "O"
            ],
            [
                ",",
                "O"
            ],
            [
                "sau",
                "O"
            ],
            [
                "khi",
                "O"
            ],
            [
                "có",
                "O"
            ],
            [
                "ý",
                "O"
            ],
            [
                "kiến",
                "O"
            ],
            [
                "​",
                "O"
            ],
            [
                "​",
                "O"
            ],
            [
                "của",
                "O"
            ],
            [
                "Ủy",
                "B-ORG"
            ],
            [
                "ban",
                "I-ORG"
            ],
            [
                "châu",
                "I-ORG"
            ],
            [
                "Âu",
                "I-ORG"
            ],
            [
                "và",
                "O"
            ],
            [
                "nhận",
                "O"
            ],
            [
                "được",
                "O"
            ],
            [
                "sự",
                "O"
            ],
            [
                "đồng",
                "O"
            ],
            [
                "ý",
                "O"
            ],
            [
                "của",
                "O"
            ],
            [
                "Nghị",
                "B-ORG"
            ],
            [
                "viện",
                "I-ORG"
            ],
            [
                "châu",
                "I-ORG"
            ],
            [
                "Âu",
                "I-ORG"
            ],
            [
                ".",
                "O"
            ],
            [
                "Quyết",
                "O"
            ],
            [
                "định",
                "O"
            ],
            [
                "sau",
                "O"
            ],
            [
                "đó",
                "O"
            ],
            [
                "sẽ",
                "O"
            ],
            [
                "cần",
                "O"
            ],
            [
                "phải",
                "O"
            ],
            [
                "được",
                "O"
            ],
            [
                "tất",
                "O"
            ],
            [
                "cả",
                "O"
            ],
            [
                "các",
                "O"
            ],
            [
                "quốc",
                "O"
            ],
            [
                "gia",
                "O"
            ],
            [
                "thành",
                "O"
            ],
            [
                "viên",
                "O"
            ],
            [
                "phê",
                "O"
            ],
            [
                "chuẩn",
                "O"
            ],
            [
                ".",
                "O"
            ]
        ],
        [
            [
                "Xem",
                "O"
            ],
            [
                "thêm",
                "O"
            ],
            [
                ":",
                "O"
            ],
            [
                "Vì",
                "O"
            ],
            [
                "sao",
                "O"
            ],
            [
                "Anh",
                "O"
            ],
            [
                "không",
                "O"
            ],
            [
                "thể",
                "O"
            ],
            [
                "ngay",
                "O"
            ],
            [
                "lập",
                "O"
            ],
            [
                "tức",
                "O"
            ],
            [
                "rời",
                "O"
            ],
            [
                "EU",
                "O"
            ]
        ],
        [
            [
                "Cuộc",
                "O"
            ],
            [
                "chia",
                "O"
            ],
            [
                "tay",
                "O"
            ],
            [
                "lịch",
                "O"
            ],
            [
                "sử",
                "O"
            ],
            [
                "Anh",
                "O"
            ],
            [
                "-",
                "O"
            ],
            [
                "EU",
                "O"
            ],
            [
                "qua",
                "O"
            ],
            [
                "hình",
                "O"
            ],
            [
                "họa",
                "O"
            ],
            [
                "con",
                "O"
            ],
            [
                "thuyền",
                "O"
            ]
        ],
        [
            [
                "Phương",
                "O"
            ],
            [
                "Vũ",
                "O"
            ]
        ]
    ],
    "text": "Đơn kiến nghị đã thu được gần ba triệu chữ ký . Theo quy định , nếu đơn kiến nghị thu hút 100.000 chữ ký , vấn đề sẽ được quốc hội Anh xem xét để đưa ra tranh luận . Ảnh chụp màn hình\nGần ba triệu người đã ký vào thư kiến nghị trên trang web của quốc hội Anh , yêu cầu tổ chức một cuộc trưng cầu dân ý thứ hai về việc Anh đi hay ở EU .   Đây là thư kiến nghị thu hút nhiều sự ủng hộ nhất trên trang web này từ trước đến nay .\nNgười viết bản kiến ​ ​ nghị , William Oliver Healey , cho rằng chính phủ cần tổ chức lại trưng cầu dân ý vì tỷ lệ bỏ phiếu chiến thắng chưa vượt quá 60% và tỷ lệ người đi bầu dưới 75% . Nhiều người Anh cũng bày tỏ sự hối tiếc khi chọn rời khỏi EU vì sẽ mất những đặc quyền và lợi ích mà liên minh cung cấp .\nTrong cuộc trưng cầu dân ý hôm 23\/6 , 17,4 triệu người ( 51.9% ) đã bỏ phiếu rời khỏi EU , so với 16,1 triệu người ( 48,1% ) chọn ở lại , với tỷ lệ người đi bầu 72,2% , theo Ủy ban Bầu cử Anh .\nTheo Telegraph , giáo sư Vernon Bogdanor , một trong những chuyên gia hiến pháp hàng đầu của Anh , cho rằng rất khó xảy ra một cuộc trưng cầu thứ hai .\n\" Tôi cho rằng EU sẽ không muốn ' mặc cả ' thêm nữa , họ sẽ xem kết quả cuộc trưng cầu này là lựa chọn cuối cùng \" , ông nói .\nGiáo sư Bogdanor , chuyên gia về lịch sử lập hiến tại King ’ s College London , cảnh báo rằng chính phủ Anh sẽ rất thận trọng về việc kêu gọi trưng cầu dân ý trong tương lai .\nGiáo sư John Curtice , tại   Đại học Strathclyde , nói rằng ngay trong nội bộ các chính đảng cũng có quan điểm chia rẽ về vấn này , và những người ủng hộ của các đảng khó có khả năng mở ra được các cuộc vận động , chưa nói đến mở ra thêm một cuộc trưng cầu nữa .\n\" Bao nhiêu người đã bỏ phiếu ủng hộ ra đi ? 17 triệu người đấy \" , ông nói .   \" Bây giờ họ ký vào bản kiến nghị cũng chả ích gì , họ nhẽ ra nên làm việc đó trước . Nhưng ngay cả khi đó , những kiến ​ ​ nghị như thế này không phải lúc nào cũng có tác dụng .\n\" Nếu Boris Johnson ( cựu thị trưởng London dẫn dầu chiến dịch đưa Anh rời EU ) trở thành người đứng đầu chính phủ và nếu thủ tục cho cuộc chia tay kéo dài , hai năm sau , chúng ta có thể có một cuộc thăm dò cho thấy người dân Anh thực sự muốn đảo ngược quyết định và ở lại với EU \" , ông nhận xét .\n\" Sau đó , có thể có tình huống là đảng đối lập trong cuộc tổng tuyển cử sẽ thúc giục tổ chức một cuộc trưng cầu dân ý mới \" , giáo sư nói thêm .\nKhông ràng buộc\nThực tế , kết quả trưng cầu dân ý không có tính ràng buộc về pháp lý .   Về lý thuyết , Thủ tướng Anh có thể bỏ qua kết quả trưng cầu dân ý và đưa câu hỏi ra tranh luận trước quốc hội .\nĐiều 50 trong Hiệp ước Lisbon của EU quy định bất kỳ quốc gia thành viên nào cũng có thể rút khỏi EU .   Ông Cameron có thể quyết định khi nào \" kích hoạt \" Điều 50 , tức là thông báo chính thức đến EU rằng Anh muốn rời khỏi liên minh , bắt đầu giai đoạn đàm phán kéo dài hai năm về thỏa thuận cho cuộc chia tay . Ông vẫn có thể bỏ qua kết quả trưng cầu dân ý và không thông báo cho EU . Tuy nhiên , trong thực tế , điều này rất khó xảy ra .\nÔng Cameron đã nói rằng ông sẽ kích hoạt điều khoản ngay lập tức , nếu kết quả trưng cầu cho thấy người Anh chọn rời khỏi EU . Tuy nhiên , có thể ông nói vậy với nghĩa bóng , nhằm nhấn mạnh rằng cuộc trưng cầu 23\/6 sẽ là lựa chọn cuối cùng của người dân Anh . Ông Cameron hiện chưa kích hoạt Điều 50 .\nKhả năng quay lại\nTrong trường hợp Anh đã rời EU nhưng sau đó muốn quay lại , họ hoàn toàn có thể làm việc đó .   Điều 50 quy định : \" Nếu nước đã rút khỏi liên minh muốn tái gia nhập , họ phải tuân theo thủ tục được quy định trong Điều 49 \" .\nĐiều 49 của Hiệp ước Lisbon quy định các thủ tục cho bất kỳ quốc gia nào muốn gia nhập EU , cho dù trước đó có là thành viên hay không .\nĐiều khoản này nói rằng nếu một quốc gia châu Âu cam kết thúc đẩy các giá trị \" nhân phẩm , tự do , dân chủ , bình đẳng , pháp trị và tôn trọng nhân quyền \" , họ có thể nộp đơn xin trở thành thành viên của liên minh .\nSau khi nhận được đơn , Hội đồng châu Âu sẽ phải nhất trí về quyết định , sau khi có ý kiến ​ ​ của Ủy ban châu Âu và nhận được sự đồng ý của Nghị viện châu Âu . Quyết định sau đó sẽ cần phải được tất cả các quốc gia thành viên phê chuẩn .\nXem thêm :   Vì sao Anh không thể ngay lập tức rời EU\nCuộc chia tay lịch sử Anh - EU qua hình họa con thuyền\nPhương Vũ\n"
}