{
    "sentences": [
        [
            [
                "-",
                "O"
            ],
            [
                "Các",
                "O"
            ],
            [
                "anh",
                "O"
            ],
            [
                "đánh",
                "O"
            ],
            [
                "giá",
                "O"
            ],
            [
                "thế",
                "O"
            ],
            [
                "nào",
                "O"
            ],
            [
                "về",
                "O"
            ],
            [
                "bóng",
                "O"
            ],
            [
                "đá",
                "O"
            ],
            [
                "Việt",
                "B-LOC"
            ],
            [
                "Nam?",
                "O"
            ]
        ],
        [
            [
                "-",
                "O"
            ],
            [
                "Dwight",
                "O"
            ],
            [
                "Yorke:",
                "O"
            ],
            [
                "Tôi",
                "O"
            ],
            [
                "không",
                "O"
            ],
            [
                "biết",
                "O"
            ],
            [
                "nhiều",
                "O"
            ],
            [
                "về",
                "O"
            ],
            [
                "bóng",
                "O"
            ],
            [
                "đá",
                "O"
            ],
            [
                "Việt",
                "B-LOC"
            ],
            [
                "Nam.",
                "O"
            ],
            [
                "Tuy",
                "O"
            ],
            [
                "nhiên,",
                "O"
            ],
            [
                "việc",
                "O"
            ],
            [
                "đi",
                "O"
            ],
            [
                "du",
                "O"
            ],
            [
                "lịch",
                "O"
            ],
            [
                "và",
                "O"
            ],
            [
                "công",
                "O"
            ],
            [
                "tác",
                "O"
            ],
            [
                "nhiều",
                "O"
            ],
            [
                "ở",
                "O"
            ],
            [
                "châu",
                "B-LOC"
            ],
            [
                "Á",
                "I-LOC"
            ],
            [
                "cho",
                "O"
            ],
            [
                "tôi",
                "O"
            ],
            [
                "thấy,",
                "O"
            ],
            [
                "ở",
                "O"
            ],
            [
                "châu",
                "O"
            ],
            [
                "lục",
                "O"
            ],
            [
                "này",
                "O"
            ],
            [
                "rất",
                "O"
            ],
            [
                "yêu",
                "O"
            ],
            [
                "bóng",
                "O"
            ],
            [
                "đá.",
                "O"
            ],
            [
                "Họ",
                "O"
            ],
            [
                "yêu",
                "O"
            ],
            [
                "đến",
                "O"
            ],
            [
                "“cuồng”,",
                "O"
            ],
            [
                "đến",
                "O"
            ],
            [
                "tôn",
                "O"
            ],
            [
                "thờ",
                "O"
            ],
            [
                "bóng",
                "O"
            ],
            [
                "đá.",
                "O"
            ]
        ],
        [
            [
                "Vì",
                "O"
            ],
            [
                "vậy,",
                "O"
            ],
            [
                "tôi",
                "O"
            ],
            [
                "tin",
                "O"
            ],
            [
                "một",
                "O"
            ],
            [
                "ngày",
                "O"
            ],
            [
                "không",
                "O"
            ],
            [
                "xa,",
                "O"
            ],
            [
                "bóng",
                "O"
            ],
            [
                "đá",
                "O"
            ],
            [
                "châu",
                "B-LOC"
            ],
            [
                "Á",
                "I-LOC"
            ],
            [
                "sẽ",
                "O"
            ],
            [
                "có",
                "O"
            ],
            [
                "một",
                "O"
            ],
            [
                "đội",
                "O"
            ],
            [
                "vô",
                "O"
            ],
            [
                "địch",
                "O"
            ],
            [
                "World",
                "O"
            ],
            [
                "Cup.",
                "O"
            ],
            [
                "Và",
                "O"
            ],
            [
                "để",
                "O"
            ],
            [
                "làm",
                "O"
            ],
            [
                "được",
                "O"
            ],
            [
                "điều",
                "O"
            ],
            [
                "đó,",
                "O"
            ],
            [
                "các",
                "O"
            ],
            [
                "cầu",
                "O"
            ],
            [
                "thủ",
                "O"
            ],
            [
                "châu",
                "B-LOC"
            ],
            [
                "Á",
                "I-LOC"
            ],
            [
                "phải",
                "O"
            ],
            [
                "vượt",
                "O"
            ],
            [
                "qua",
                "O"
            ],
            [
                "suy",
                "O"
            ],
            [
                "nghĩ",
                "O"
            ],
            [
                "là",
                "O"
            ],
            [
                "cầu",
                "O"
            ],
            [
                "thủ",
                "O"
            ],
            [
                "châu",
                "B-LOC"
            ],
            [
                "Á",
                "I-LOC"
            ],
            [
                "phải",
                "O"
            ],
            [
                "to,",
                "O"
            ],
            [
                "khoẻ,",
                "O"
            ],
            [
                "cường",
                "O"
            ],
            [
                "tráng",
                "O"
            ],
            [
                "như",
                "O"
            ],
            [
                "cầu",
                "O"
            ],
            [
                "thủ",
                "O"
            ],
            [
                "ở",
                "O"
            ],
            [
                "các",
                "O"
            ],
            [
                "châu",
                "O"
            ],
            [
                "lục",
                "O"
            ],
            [
                "khác.",
                "O"
            ],
            [
                "Các",
                "O"
            ],
            [
                "bạn",
                "O"
            ],
            [
                "nên",
                "O"
            ],
            [
                "tận",
                "O"
            ],
            [
                "dụng",
                "O"
            ],
            [
                "tố",
                "O"
            ],
            [
                "chất",
                "O"
            ],
            [
                "kỹ",
                "O"
            ],
            [
                "thuật",
                "O"
            ],
            [
                "của",
                "O"
            ],
            [
                "mình.",
                "O"
            ],
            [
                "Đôi",
                "O"
            ],
            [
                "tuyển",
                "O"
            ],
            [
                "cũng",
                "O"
            ],
            [
                "cần",
                "O"
            ],
            [
                "vạch",
                "O"
            ],
            [
                "ra",
                "O"
            ],
            [
                "một",
                "O"
            ],
            [
                "chiến",
                "O"
            ],
            [
                "lược",
                "O"
            ],
            [
                "dài",
                "O"
            ],
            [
                "mới",
                "O"
            ],
            [
                "có",
                "O"
            ],
            [
                "thể",
                "O"
            ],
            [
                "mang",
                "O"
            ],
            [
                "lại",
                "O"
            ],
            [
                "thành",
                "O"
            ],
            [
                "công.",
                "O"
            ]
        ],
        [
            [
                "Ronny",
                "O"
            ],
            [
                "Johnsen:",
                "O"
            ],
            [
                "Bóng",
                "O"
            ],
            [
                "đá",
                "O"
            ],
            [
                "Việt",
                "B-LOC"
            ],
            [
                "Nam",
                "I-LOC"
            ],
            [
                "muốn",
                "O"
            ],
            [
                "phát",
                "O"
            ],
            [
                "triển",
                "O"
            ],
            [
                "thì",
                "O"
            ],
            [
                "hãy",
                "O"
            ],
            [
                "nhìn",
                "O"
            ],
            [
                "Ireland",
                "O"
            ],
            [
                "ở",
                "O"
            ],
            [
                "Euro",
                "O"
            ],
            [
                "lần",
                "O"
            ],
            [
                "này",
                "O"
            ],
            [
                "để",
                "O"
            ],
            [
                "học",
                "O"
            ],
            [
                "hỏi.",
                "O"
            ],
            [
                "Muốn",
                "O"
            ],
            [
                "có",
                "O"
            ],
            [
                "một",
                "O"
            ],
            [
                "đội",
                "O"
            ],
            [
                "tuyển",
                "O"
            ],
            [
                "mạnh,",
                "O"
            ],
            [
                "các",
                "O"
            ],
            [
                "bạn",
                "O"
            ],
            [
                "hãy",
                "O"
            ],
            [
                "có",
                "O"
            ],
            [
                "một",
                "O"
            ],
            [
                "huấn",
                "O"
            ],
            [
                "luyện",
                "O"
            ],
            [
                "viên",
                "O"
            ],
            [
                "phù",
                "O"
            ],
            [
                "hợp,",
                "O"
            ],
            [
                "sau",
                "O"
            ],
            [
                "đó,",
                "O"
            ],
            [
                "đưa",
                "O"
            ],
            [
                "các",
                "O"
            ],
            [
                "cầu",
                "O"
            ],
            [
                "thủ",
                "O"
            ],
            [
                "trẻ",
                "O"
            ],
            [
                "ra",
                "O"
            ],
            [
                "nước",
                "O"
            ],
            [
                "ngoài",
                "O"
            ],
            [
                "tập",
                "O"
            ],
            [
                "huấn",
                "O"
            ],
            [
                "dài",
                "O"
            ],
            [
                "hạn.",
                "O"
            ],
            [
                "Đến",
                "O"
            ],
            [
                "tuổi",
                "O"
            ],
            [
                "trưởng",
                "O"
            ],
            [
                "thành,",
                "O"
            ],
            [
                "khi",
                "O"
            ],
            [
                "các",
                "O"
            ],
            [
                "cầu",
                "O"
            ],
            [
                "thủ",
                "O"
            ],
            [
                "phát",
                "O"
            ],
            [
                "triển",
                "O"
            ],
            [
                "sự",
                "O"
            ],
            [
                "nghiệp",
                "O"
            ],
            [
                "thì",
                "O"
            ],
            [
                "đưa",
                "O"
            ],
            [
                "về",
                "O"
            ],
            [
                "tập",
                "O"
            ],
            [
                "hợp",
                "O"
            ],
            [
                "lại",
                "O"
            ],
            [
                "thành",
                "O"
            ],
            [
                "một",
                "O"
            ],
            [
                "đội",
                "O"
            ],
            [
                "tuyển",
                "O"
            ],
            [
                "quốc",
                "O"
            ],
            [
                "gia",
                "O"
            ],
            [
                "hùng",
                "O"
            ],
            [
                "mạnh.",
                "O"
            ]
        ],
        [
            [
                "-",
                "O"
            ],
            [
                "Cảm",
                "O"
            ],
            [
                "giác",
                "O"
            ],
            [
                "của",
                "O"
            ],
            [
                "các",
                "O"
            ],
            [
                "anh",
                "O"
            ],
            [
                "thế",
                "O"
            ],
            [
                "nào",
                "O"
            ],
            [
                "khi",
                "O"
            ],
            [
                "lần",
                "O"
            ],
            [
                "đầu",
                "O"
            ],
            [
                "thi",
                "O"
            ],
            [
                "đấu",
                "O"
            ],
            [
                "ở",
                "O"
            ],
            [
                "Việt",
                "B-LOC"
            ],
            [
                "Nam,",
                "O"
            ],
            [
                "trong",
                "O"
            ],
            [
                "trận",
                "O"
            ],
            [
                "ra",
                "O"
            ],
            [
                "quân",
                "O"
            ],
            [
                "ngày",
                "O"
            ],
            [
                "mai",
                "O"
            ],
            [
                "tại",
                "O"
            ],
            [
                "sân",
                "O"
            ],
            [
                "vận",
                "O"
            ],
            [
                "động",
                "O"
            ],
            [
                "Quân",
                "O"
            ],
            [
                "khu",
                "O"
            ],
            [
                "7?",
                "O"
            ]
        ],
        [
            [
                "-",
                "O"
            ],
            [
                "Dwight",
                "O"
            ],
            [
                "Yorke:",
                "O"
            ],
            [
                "Tôi",
                "O"
            ],
            [
                "rất",
                "O"
            ],
            [
                "hân",
                "O"
            ],
            [
                "hạnh",
                "O"
            ],
            [
                "khi",
                "O"
            ],
            [
                "được",
                "O"
            ],
            [
                "trở",
                "O"
            ],
            [
                "lại",
                "O"
            ],
            [
                "Việt",
                "B-LOC"
            ],
            [
                "Nam",
                "I-LOC"
            ],
            [
                "và",
                "O"
            ],
            [
                "chơi",
                "O"
            ],
            [
                "bóng",
                "O"
            ],
            [
                "trong",
                "O"
            ],
            [
                "trận",
                "O"
            ],
            [
                "cầu",
                "O"
            ],
            [
                "“Đỉnh",
                "O"
            ],
            [
                "cao",
                "O"
            ],
            [
                "phong",
                "O"
            ],
            [
                "độ”",
                "O"
            ],
            [
                "theo",
                "O"
            ],
            [
                "lời",
                "O"
            ],
            [
                "mời",
                "O"
            ],
            [
                "của",
                "O"
            ],
            [
                "Clear",
                "B-ORG"
            ],
            [
                "Men.",
                "I-ORG"
            ],
            [
                "Chắc",
                "I-ORG"
            ],
            [
                "chắn",
                "O"
            ],
            [
                "ngày",
                "O"
            ],
            [
                "mai,",
                "O"
            ],
            [
                "các",
                "O"
            ],
            [
                "bạn",
                "O"
            ],
            [
                "sẽ",
                "O"
            ],
            [
                "thấy",
                "O"
            ],
            [
                "chúng",
                "O"
            ],
            [
                "tôi",
                "O"
            ],
            [
                "với",
                "O"
            ],
            [
                "một",
                "O"
            ],
            [
                "bộ",
                "O"
            ],
            [
                "mặt",
                "O"
            ],
            [
                "khác.",
                "O"
            ]
        ],
        [
            [
                "Bản",
                "O"
            ],
            [
                "thân",
                "O"
            ],
            [
                "tôi",
                "O"
            ],
            [
                "và",
                "O"
            ],
            [
                "Ronny",
                "B-ORG"
            ],
            [
                "Johnsen",
                "I-ORG"
            ],
            [
                "là",
                "O"
            ],
            [
                "những",
                "O"
            ],
            [
                "cầu",
                "O"
            ],
            [
                "thủ",
                "O"
            ],
            [
                "từng",
                "O"
            ],
            [
                "chơi",
                "O"
            ],
            [
                "chuyên",
                "O"
            ],
            [
                "nghiệp",
                "O"
            ],
            [
                "lâu",
                "B-TIME"
            ],
            [
                "năm",
                "I-TIME"
            ],
            [
                "nên",
                "O"
            ],
            [
                "chúng",
                "O"
            ],
            [
                "tôi",
                "O"
            ],
            [
                "rất",
                "O"
            ],
            [
                "háo",
                "O"
            ],
            [
                "thắng.",
                "O"
            ],
            [
                "Trận",
                "O"
            ],
            [
                "đấu",
                "O"
            ],
            [
                "ngày",
                "O"
            ],
            [
                "mai,",
                "O"
            ],
            [
                "đội",
                "O"
            ],
            [
                "của",
                "O"
            ],
            [
                "tôi",
                "O"
            ],
            [
                "chắc",
                "O"
            ],
            [
                "chắn",
                "O"
            ],
            [
                "sẽ",
                "O"
            ],
            [
                "giành",
                "O"
            ],
            [
                "chiến",
                "O"
            ],
            [
                "thắng.",
                "O"
            ],
            [
                "Tuy",
                "O"
            ],
            [
                "nhiên,",
                "O"
            ],
            [
                "dù",
                "O"
            ],
            [
                "kết",
                "O"
            ],
            [
                "quả",
                "O"
            ],
            [
                "có",
                "O"
            ],
            [
                "như",
                "O"
            ],
            [
                "thế",
                "O"
            ],
            [
                "nào",
                "O"
            ],
            [
                "đi",
                "O"
            ],
            [
                "chăng",
                "O"
            ],
            [
                "nữa",
                "O"
            ],
            [
                "thì",
                "O"
            ],
            [
                "tôi",
                "O"
            ],
            [
                "mong,",
                "O"
            ],
            [
                "các",
                "O"
            ],
            [
                "em",
                "O"
            ],
            [
                "đá",
                "O"
            ],
            [
                "bóng",
                "O"
            ],
            [
                "cùng",
                "O"
            ],
            [
                "chúng",
                "O"
            ],
            [
                "tôi",
                "O"
            ],
            [
                "sẽ",
                "O"
            ],
            [
                "học",
                "O"
            ],
            [
                "hỏi",
                "O"
            ],
            [
                "được",
                "O"
            ],
            [
                "điều",
                "O"
            ],
            [
                "gì",
                "O"
            ],
            [
                "đó",
                "O"
            ],
            [
                "qua",
                "O"
            ],
            [
                "trận",
                "O"
            ],
            [
                "đấu",
                "O"
            ],
            [
                "này.",
                "O"
            ],
            [
                "Hy",
                "O"
            ],
            [
                "vọng",
                "O"
            ],
            [
                "sẽ",
                "O"
            ],
            [
                "giúp",
                "O"
            ],
            [
                "các",
                "O"
            ],
            [
                "em",
                "O"
            ],
            [
                "đam",
                "O"
            ],
            [
                "mê",
                "O"
            ],
            [
                "và",
                "O"
            ],
            [
                "thành",
                "O"
            ],
            [
                "công",
                "O"
            ],
            [
                "hơn",
                "O"
            ],
            [
                "trong",
                "O"
            ],
            [
                "cuộc",
                "O"
            ],
            [
                "sống.",
                "O"
            ],
            [
                "Tôi",
                "O"
            ],
            [
                "cũng",
                "O"
            ],
            [
                "muốn",
                "O"
            ],
            [
                "nhắn",
                "O"
            ],
            [
                "nhủ",
                "O"
            ],
            [
                "với",
                "O"
            ],
            [
                "các",
                "O"
            ],
            [
                "cầu",
                "O"
            ],
            [
                "thủ",
                "O"
            ],
            [
                "nghiệp",
                "O"
            ],
            [
                "dư,",
                "O"
            ],
            [
                "những",
                "O"
            ],
            [
                "người",
                "O"
            ],
            [
                "ngày",
                "O"
            ],
            [
                "mai",
                "O"
            ],
            [
                "sẽ",
                "O"
            ],
            [
                "là",
                "O"
            ],
            [
                "đồng",
                "O"
            ],
            [
                "đội",
                "O"
            ],
            [
                "của",
                "O"
            ],
            [
                "tôi",
                "O"
            ],
            [
                "rằng:",
                "O"
            ],
            [
                "tôi",
                "O"
            ],
            [
                "đến",
                "O"
            ],
            [
                "đây",
                "O"
            ],
            [
                "để",
                "O"
            ],
            [
                "đồng",
                "O"
            ],
            [
                "hành",
                "O"
            ],
            [
                "cùng",
                "O"
            ],
            [
                "các",
                "O"
            ],
            [
                "bạn,",
                "O"
            ],
            [
                "để",
                "O"
            ],
            [
                "làm",
                "O"
            ],
            [
                "đồng",
                "O"
            ],
            [
                "đội",
                "O"
            ],
            [
                "với",
                "O"
            ],
            [
                "các",
                "O"
            ],
            [
                "bạn",
                "O"
            ],
            [
                "và",
                "O"
            ],
            [
                "các",
                "O"
            ],
            [
                "bạn",
                "O"
            ],
            [
                "hãy",
                "O"
            ],
            [
                "yên",
                "O"
            ],
            [
                "tâm",
                "O"
            ],
            [
                "tận",
                "O"
            ],
            [
                "hưởng",
                "O"
            ],
            [
                "trận",
                "O"
            ],
            [
                "đấu.",
                "O"
            ]
        ],
        [
            [
                "Ronny",
                "O"
            ],
            [
                "Johnsen:",
                "O"
            ],
            [
                "Tôi",
                "O"
            ],
            [
                "rất",
                "O"
            ],
            [
                "cảm",
                "O"
            ],
            [
                "ơn",
                "O"
            ],
            [
                "vì",
                "O"
            ],
            [
                "được",
                "O"
            ],
            [
                "các",
                "O"
            ],
            [
                "fans",
                "O"
            ],
            [
                "chào",
                "O"
            ],
            [
                "đón",
                "O"
            ],
            [
                "nhiệt",
                "O"
            ],
            [
                "tình",
                "O"
            ],
            [
                "khi",
                "O"
            ],
            [
                "đặt",
                "O"
            ],
            [
                "chân",
                "O"
            ],
            [
                "xuống",
                "O"
            ],
            [
                "sân",
                "O"
            ],
            [
                "bay.",
                "O"
            ],
            [
                "Điều",
                "O"
            ],
            [
                "đó",
                "O"
            ],
            [
                "làm",
                "O"
            ],
            [
                "cho",
                "O"
            ],
            [
                "tôi",
                "O"
            ],
            [
                "thấy",
                "O"
            ],
            [
                "vui",
                "O"
            ],
            [
                "với",
                "O"
            ],
            [
                "trận",
                "O"
            ],
            [
                "đấu",
                "O"
            ],
            [
                "ngày",
                "O"
            ],
            [
                "mai.",
                "O"
            ],
            [
                "Vì",
                "O"
            ],
            [
                "tôi",
                "O"
            ],
            [
                "lại",
                "O"
            ],
            [
                "được",
                "O"
            ],
            [
                "xỏ",
                "O"
            ],
            [
                "giày",
                "O"
            ],
            [
                "vào",
                "O"
            ],
            [
                "sân,",
                "O"
            ],
            [
                "cảm",
                "O"
            ],
            [
                "giác",
                "O"
            ],
            [
                "như",
                "O"
            ],
            [
                "mình",
                "O"
            ],
            [
                "sẽ",
                "O"
            ],
            [
                "trở",
                "O"
            ],
            [
                "lại",
                "O"
            ],
            [
                "với",
                "O"
            ],
            [
                "những",
                "O"
            ],
            [
                "ngày",
                "O"
            ],
            [
                "thi",
                "O"
            ],
            [
                "đấu",
                "O"
            ],
            [
                "cho",
                "O"
            ],
            [
                "Man",
                "O"
            ],
            [
                "Utd,",
                "O"
            ],
            [
                "nơi",
                "O"
            ],
            [
                "tạo",
                "O"
            ],
            [
                "dựng",
                "O"
            ],
            [
                "nên",
                "O"
            ],
            [
                "tên",
                "O"
            ],
            [
                "tuổi",
                "O"
            ],
            [
                "của",
                "O"
            ],
            [
                "tôi.",
                "O"
            ],
            [
                "Tôi",
                "O"
            ],
            [
                "mong",
                "O"
            ],
            [
                "chờ",
                "O"
            ],
            [
                "trận",
                "O"
            ],
            [
                "đấu",
                "O"
            ],
            [
                "này",
                "O"
            ],
            [
                "nhưng",
                "O"
            ],
            [
                "cũng",
                "O"
            ],
            [
                "có",
                "O"
            ],
            [
                "chút",
                "O"
            ],
            [
                "căng",
                "O"
            ],
            [
                "thẳng",
                "O"
            ],
            [
                "trước",
                "O"
            ],
            [
                "giờ",
                "O"
            ],
            [
                "xung",
                "O"
            ],
            [
                "trận.",
                "O"
            ],
            [
                "Bản",
                "O"
            ],
            [
                "thân",
                "O"
            ],
            [
                "là",
                "O"
            ],
            [
                "một",
                "O"
            ],
            [
                "trung",
                "O"
            ],
            [
                "vệ",
                "O"
            ],
            [
                "nên",
                "O"
            ],
            [
                "tôi",
                "O"
            ],
            [
                "sẽ",
                "O"
            ],
            [
                "“khoá”",
                "O"
            ],
            [
                "mọi",
                "O"
            ],
            [
                "lối",
                "O"
            ],
            [
                "vào",
                "O"
            ],
            [
                "khung",
                "O"
            ],
            [
                "thành",
                "O"
            ],
            [
                "của",
                "O"
            ],
            [
                "đối",
                "O"
            ],
            [
                "phương",
                "O"
            ],
            [
                "và",
                "O"
            ],
            [
                "sẽ",
                "O"
            ],
            [
                "không",
                "O"
            ],
            [
                "cho",
                "O"
            ],
            [
                "Dwight",
                "O"
            ],
            [
                "Yorke",
                "O"
            ],
            [
                "một",
                "O"
            ],
            [
                "cơ",
                "O"
            ],
            [
                "hội",
                "O"
            ],
            [
                "nào.",
                "O"
            ]
        ],
        [
            [
                "-",
                "O"
            ],
            [
                "Không",
                "O"
            ],
            [
                "khí",
                "O"
            ],
            [
                "Euro",
                "O"
            ],
            [
                "đang",
                "O"
            ],
            [
                "sôi",
                "O"
            ],
            [
                "nổi",
                "O"
            ],
            [
                "khắp",
                "O"
            ],
            [
                "nơi.",
                "O"
            ],
            [
                "Các",
                "O"
            ],
            [
                "anh",
                "O"
            ],
            [
                "dự",
                "O"
            ],
            [
                "đoán",
                "O"
            ],
            [
                "đội",
                "O"
            ],
            [
                "nào",
                "O"
            ],
            [
                "sẽ",
                "O"
            ],
            [
                "lên",
                "O"
            ],
            [
                "ngôi",
                "O"
            ],
            [
                "trong",
                "O"
            ],
            [
                "mùa",
                "O"
            ],
            [
                "giải",
                "O"
            ],
            [
                "năm",
                "B-TIME"
            ],
            [
                "nay?",
                "I-TIME"
            ]
        ],
        [
            [
                "-",
                "O"
            ],
            [
                "Dwight",
                "O"
            ],
            [
                "Yorke:",
                "O"
            ],
            [
                "Sau",
                "O"
            ],
            [
                "khi",
                "O"
            ],
            [
                "giải",
                "O"
            ],
            [
                "nghệ,",
                "O"
            ],
            [
                "tôi",
                "O"
            ],
            [
                "làm",
                "O"
            ],
            [
                "những",
                "O"
            ],
            [
                "công",
                "O"
            ],
            [
                "việc",
                "O"
            ],
            [
                "liên",
                "O"
            ],
            [
                "quan",
                "O"
            ],
            [
                "đến",
                "O"
            ],
            [
                "bóng",
                "O"
            ],
            [
                "đá,",
                "O"
            ],
            [
                "trong",
                "O"
            ],
            [
                "đó",
                "O"
            ],
            [
                "có",
                "O"
            ],
            [
                "cả",
                "O"
            ],
            [
                "bình",
                "O"
            ],
            [
                "luận",
                "O"
            ],
            [
                "viên",
                "O"
            ],
            [
                "truyền",
                "O"
            ],
            [
                "hình.",
                "O"
            ],
            [
                "Tôi",
                "O"
            ],
            [
                "không",
                "O"
            ],
            [
                "thể",
                "O"
            ],
            [
                "theo",
                "O"
            ],
            [
                "dõi",
                "O"
            ],
            [
                "hết",
                "O"
            ],
            [
                "các",
                "O"
            ],
            [
                "trận",
                "O"
            ],
            [
                "đấu",
                "O"
            ],
            [
                "Euro",
                "O"
            ],
            [
                "nhưng",
                "O"
            ],
            [
                "luôn",
                "O"
            ],
            [
                "cập",
                "O"
            ],
            [
                "nhật",
                "O"
            ],
            [
                "kết",
                "O"
            ],
            [
                "quả",
                "O"
            ],
            [
                "các",
                "O"
            ],
            [
                "trận",
                "O"
            ],
            [
                "đấu.",
                "O"
            ],
            [
                "Đây",
                "O"
            ],
            [
                "là",
                "O"
            ],
            [
                "một",
                "O"
            ],
            [
                "giải",
                "O"
            ],
            [
                "đấu",
                "O"
            ],
            [
                "hấp",
                "O"
            ],
            [
                "dẫn",
                "O"
            ],
            [
                "với",
                "O"
            ],
            [
                "những",
                "O"
            ],
            [
                "trận",
                "O"
            ],
            [
                "đấu",
                "O"
            ],
            [
                "hay.",
                "O"
            ],
            [
                "Tôi",
                "O"
            ],
            [
                "nghĩ",
                "O"
            ],
            [
                "các",
                "O"
            ],
            [
                "đội",
                "O"
            ],
            [
                "như",
                "O"
            ],
            [
                "Pháp,",
                "B-ORG"
            ],
            [
                "Tây",
                "I-ORG"
            ],
            [
                "Ban",
                "I-ORG"
            ],
            [
                "Nha,",
                "I-ORG"
            ],
            [
                "Đức",
                "I-ORG"
            ],
            [
                "sẽ",
                "O"
            ],
            [
                "tiến",
                "O"
            ],
            [
                "xa",
                "O"
            ],
            [
                "tại",
                "O"
            ],
            [
                "giải",
                "O"
            ],
            [
                "và",
                "O"
            ],
            [
                "tôi",
                "O"
            ],
            [
                "nghĩ",
                "O"
            ],
            [
                "người",
                "O"
            ],
            [
                "Đức",
                "O"
            ],
            [
                "sẽ",
                "O"
            ],
            [
                "bước",
                "O"
            ],
            [
                "lên",
                "O"
            ],
            [
                "bục",
                "O"
            ],
            [
                "vinh",
                "O"
            ],
            [
                "quang.",
                "O"
            ]
        ],
        [
            [
                "Ronny",
                "O"
            ],
            [
                "Johnsen:",
                "O"
            ],
            [
                "Có",
                "O"
            ],
            [
                "thể",
                "O"
            ],
            [
                "nói,",
                "O"
            ],
            [
                "Euro",
                "B-ORG"
            ],
            [
                "năm",
                "B-TIME"
            ],
            [
                "nay",
                "I-TIME"
            ],
            [
                "là",
                "O"
            ],
            [
                "một",
                "O"
            ],
            [
                "giải",
                "O"
            ],
            [
                "đấu",
                "O"
            ],
            [
                "đồng",
                "O"
            ],
            [
                "đều",
                "O"
            ],
            [
                "với",
                "O"
            ],
            [
                "những",
                "O"
            ],
            [
                "trận",
                "O"
            ],
            [
                "đấu",
                "O"
            ],
            [
                "rất",
                "O"
            ],
            [
                "cân",
                "O"
            ],
            [
                "bằng.",
                "O"
            ],
            [
                "Chẳng",
                "O"
            ],
            [
                "hạn",
                "O"
            ],
            [
                "như",
                "O"
            ],
            [
                "trận",
                "O"
            ],
            [
                "đấu",
                "O"
            ],
            [
                "sắp",
                "O"
            ],
            [
                "tới",
                "O"
            ],
            [
                "giữa",
                "O"
            ],
            [
                "Italy",
                "B-ORG"
            ],
            [
                "và",
                "I-ORG"
            ],
            [
                "Tây",
                "I-ORG"
            ],
            [
                "Ban",
                "I-ORG"
            ],
            [
                "Nha",
                "O"
            ],
            [
                "sẽ",
                "O"
            ],
            [
                "khó",
                "O"
            ],
            [
                "dự",
                "O"
            ],
            [
                "đoán.",
                "O"
            ],
            [
                "Bản",
                "O"
            ],
            [
                "thân",
                "O"
            ],
            [
                "tôi",
                "O"
            ],
            [
                "thấy",
                "O"
            ],
            [
                "Italy",
                "O"
            ],
            [
                "là",
                "O"
            ],
            [
                "đội",
                "O"
            ],
            [
                "già",
                "O"
            ],
            [
                "rơ",
                "O"
            ],
            [
                "hơn",
                "O"
            ],
            [
                "nhưng",
                "O"
            ],
            [
                "lại",
                "O"
            ],
            [
                "ủng",
                "O"
            ],
            [
                "hộ",
                "O"
            ],
            [
                "Tây",
                "O"
            ],
            [
                "Ban",
                "O"
            ],
            [
                "Nha",
                "O"
            ],
            [
                "chiến",
                "O"
            ],
            [
                "thắng.",
                "O"
            ],
            [
                "Bên",
                "O"
            ],
            [
                "cạnh",
                "O"
            ],
            [
                "đó,",
                "O"
            ],
            [
                "việc",
                "O"
            ],
            [
                "phân",
                "O"
            ],
            [
                "nhánh",
                "O"
            ],
            [
                "ở",
                "O"
            ],
            [
                "vòng",
                "O"
            ],
            [
                "knock-out",
                "O"
            ],
            [
                "khi",
                "O"
            ],
            [
                "các",
                "O"
            ],
            [
                "đội",
                "O"
            ],
            [
                "mạnh",
                "O"
            ],
            [
                "gặp",
                "O"
            ],
            [
                "nhau",
                "O"
            ],
            [
                "trước",
                "O"
            ],
            [
                "nên",
                "O"
            ],
            [
                "chắc",
                "O"
            ],
            [
                "chắn",
                "O"
            ],
            [
                "cuộc",
                "O"
            ],
            [
                "chiến",
                "O"
            ],
            [
                "từng",
                "O"
            ],
            [
                "vòng",
                "O"
            ],
            [
                "đấu",
                "O"
            ],
            [
                "sẽ",
                "O"
            ],
            [
                "khốc",
                "O"
            ],
            [
                "liệt",
                "O"
            ],
            [
                "và",
                "O"
            ],
            [
                "tôi",
                "O"
            ],
            [
                "nghĩ",
                "O"
            ],
            [
                "với",
                "O"
            ],
            [
                "kinh",
                "O"
            ],
            [
                "nghiệm",
                "O"
            ],
            [
                "cùng",
                "O"
            ],
            [
                "chiến",
                "O"
            ],
            [
                "thuật",
                "O"
            ],
            [
                "tập",
                "O"
            ],
            [
                "luyện",
                "O"
            ],
            [
                "đồng",
                "O"
            ],
            [
                "đều",
                "O"
            ],
            [
                "của",
                "O"
            ],
            [
                "các",
                "O"
            ],
            [
                "tuyển",
                "O"
            ],
            [
                "thủ,",
                "O"
            ],
            [
                "Đức",
                "O"
            ],
            [
                "sẽ",
                "O"
            ],
            [
                "lên",
                "O"
            ],
            [
                "ngôi.",
                "O"
            ]
        ],
        [
            [
                "-",
                "O"
            ],
            [
                "Vậy",
                "O"
            ],
            [
                "siêu",
                "O"
            ],
            [
                "sao",
                "O"
            ],
            [
                "Ronaldo",
                "B-ORG"
            ],
            [
                "thì",
                "O"
            ],
            [
                "sao,",
                "O"
            ],
            [
                "các",
                "O"
            ],
            [
                "anh",
                "O"
            ],
            [
                "đánh",
                "O"
            ],
            [
                "giá",
                "O"
            ],
            [
                "thế",
                "O"
            ],
            [
                "nào",
                "O"
            ],
            [
                "về",
                "O"
            ],
            [
                "phong",
                "O"
            ],
            [
                "độ",
                "O"
            ],
            [
                "của",
                "O"
            ],
            [
                "anh",
                "O"
            ],
            [
                "ấy?",
                "O"
            ]
        ],
        [
            [
                "-",
                "O"
            ],
            [
                "Dwight",
                "O"
            ],
            [
                "Yorke:",
                "O"
            ],
            [
                "Phong",
                "O"
            ],
            [
                "độ",
                "O"
            ],
            [
                "của",
                "O"
            ],
            [
                "cậu",
                "O"
            ],
            [
                "ta",
                "O"
            ],
            [
                "rõ",
                "O"
            ],
            [
                "ràng",
                "O"
            ],
            [
                "đi",
                "O"
            ],
            [
                "xuống",
                "O"
            ],
            [
                "sau",
                "O"
            ],
            [
                "Champions",
                "O"
            ],
            [
                "League.",
                "O"
            ],
            [
                "Có",
                "O"
            ],
            [
                "lẽ",
                "O"
            ],
            [
                "là",
                "O"
            ],
            [
                "do",
                "O"
            ],
            [
                "hậu",
                "O"
            ],
            [
                "quả",
                "O"
            ],
            [
                "của",
                "O"
            ],
            [
                "những",
                "B-TIME"
            ],
            [
                "kỳ",
                "I-TIME"
            ],
            [
                "nghỉ",
                "I-TIME"
            ],
            [
                "sau",
                "I-TIME"
            ],
            [
                "khi",
                "O"
            ],
            [
                "vô",
                "O"
            ],
            [
                "địch.",
                "O"
            ],
            [
                "Tuy",
                "O"
            ],
            [
                "nhiên,",
                "O"
            ],
            [
                "như",
                "O"
            ],
            [
                "các",
                "O"
            ],
            [
                "bạn",
                "O"
            ],
            [
                "thấy",
                "O"
            ],
            [
                "đấy,",
                "O"
            ],
            [
                "Ronaldo",
                "B-ORG"
            ],
            [
                "đã",
                "O"
            ],
            [
                "lập",
                "O"
            ],
            [
                "cú",
                "O"
            ],
            [
                "đúp",
                "O"
            ],
            [
                "để",
                "O"
            ],
            [
                "giúp",
                "O"
            ],
            [
                "đội",
                "O"
            ],
            [
                "nhà",
                "O"
            ],
            [
                "vào",
                "O"
            ],
            [
                "vòng",
                "O"
            ],
            [
                "trong,",
                "O"
            ],
            [
                "điều",
                "O"
            ],
            [
                "đó",
                "O"
            ],
            [
                "chứng",
                "O"
            ],
            [
                "tỏ",
                "O"
            ],
            [
                "anh",
                "O"
            ],
            [
                "ấy",
                "O"
            ],
            [
                "đang",
                "O"
            ],
            [
                "lấy",
                "O"
            ],
            [
                "lại",
                "O"
            ],
            [
                "phong",
                "O"
            ],
            [
                "độ.",
                "O"
            ],
            [
                "Vì",
                "O"
            ],
            [
                "thế,",
                "O"
            ],
            [
                "theo",
                "O"
            ],
            [
                "tôi,",
                "O"
            ],
            [
                "Ronaldo",
                "B-ORG"
            ],
            [
                "sẽ",
                "O"
            ],
            [
                "toả",
                "O"
            ],
            [
                "sáng",
                "O"
            ],
            [
                "ở",
                "O"
            ],
            [
                "các",
                "O"
            ],
            [
                "vòng",
                "O"
            ],
            [
                "tiếp",
                "O"
            ],
            [
                "theo",
                "O"
            ],
            [
                "như",
                "O"
            ],
            [
                "là",
                "O"
            ],
            [
                "một",
                "O"
            ],
            [
                "cầu",
                "O"
            ],
            [
                "thủ",
                "O"
            ],
            [
                "“đỉnh",
                "O"
            ],
            [
                "cao",
                "O"
            ],
            [
                "phong",
                "O"
            ],
            [
                "độ”,",
                "O"
            ],
            [
                "để",
                "O"
            ],
            [
                "giúp",
                "O"
            ],
            [
                "Bồ",
                "O"
            ],
            [
                "Đào",
                "O"
            ],
            [
                "Nha",
                "O"
            ],
            [
                "đi",
                "O"
            ],
            [
                "sâu",
                "O"
            ],
            [
                "ở",
                "O"
            ],
            [
                "giải",
                "O"
            ],
            [
                "đấu",
                "O"
            ],
            [
                "này.",
                "O"
            ]
        ],
        [
            [
                "Ronny",
                "O"
            ],
            [
                "Johnsen:",
                "O"
            ],
            [
                "Những",
                "O"
            ],
            [
                "gì",
                "O"
            ],
            [
                "Ronaldo",
                "O"
            ],
            [
                "thể",
                "O"
            ],
            [
                "hiện,",
                "O"
            ],
            [
                "các",
                "O"
            ],
            [
                "bạn",
                "O"
            ],
            [
                "đã",
                "O"
            ],
            [
                "thấy.",
                "O"
            ],
            [
                "Khi",
                "O"
            ],
            [
                "nào",
                "O"
            ],
            [
                "đội",
                "O"
            ],
            [
                "bóng",
                "O"
            ],
            [
                "cần",
                "O"
            ],
            [
                "thì",
                "O"
            ],
            [
                "anh",
                "O"
            ],
            [
                "ta",
                "O"
            ],
            [
                "có",
                "O"
            ],
            [
                "mặt.",
                "O"
            ],
            [
                "Những",
                "O"
            ],
            [
                "bàn",
                "O"
            ],
            [
                "thắng",
                "O"
            ],
            [
                "của",
                "O"
            ],
            [
                "anh",
                "O"
            ],
            [
                "ta",
                "O"
            ],
            [
                "đã",
                "O"
            ],
            [
                "nói",
                "O"
            ],
            [
                "lên",
                "O"
            ],
            [
                "tất",
                "O"
            ],
            [
                "cả",
                "O"
            ],
            [
                "và",
                "O"
            ],
            [
                "tôi",
                "O"
            ],
            [
                "nghĩ,",
                "O"
            ],
            [
                "khi",
                "O"
            ],
            [
                "đã",
                "O"
            ],
            [
                "“thông",
                "O"
            ],
            [
                "nòng”,",
                "O"
            ],
            [
                "Ronaldo",
                "B-ORG"
            ],
            [
                "sẽ",
                "O"
            ],
            [
                "là",
                "O"
            ],
            [
                "mối",
                "O"
            ],
            [
                "hiểm",
                "O"
            ],
            [
                "họa",
                "O"
            ],
            [
                "với",
                "O"
            ],
            [
                "bất",
                "O"
            ],
            [
                "cứ",
                "O"
            ],
            [
                "hàng",
                "O"
            ],
            [
                "thủ",
                "O"
            ],
            [
                "nào.",
                "O"
            ],
            [
                "Vì",
                "O"
            ],
            [
                "thế,",
                "O"
            ],
            [
                "phải",
                "O"
            ],
            [
                "dè",
                "O"
            ],
            [
                "chừng",
                "O"
            ],
            [
                "cậu",
                "O"
            ],
            [
                "ta",
                "O"
            ],
            [
                "nếu",
                "O"
            ],
            [
                "muốn",
                "O"
            ],
            [
                "đội",
                "O"
            ],
            [
                "nhà",
                "O"
            ],
            [
                "có",
                "O"
            ],
            [
                "một",
                "O"
            ],
            [
                "kết",
                "O"
            ],
            [
                "quả",
                "O"
            ],
            [
                "tốt.",
                "O"
            ]
        ],
        [
            [
                "Trong",
                "O"
            ],
            [
                "ngày",
                "O"
            ],
            [
                "25\/6,",
                "O"
            ],
            [
                "hai",
                "O"
            ],
            [
                "danh",
                "O"
            ],
            [
                "thủ",
                "O"
            ],
            [
                "có",
                "O"
            ],
            [
                "buổi",
                "O"
            ],
            [
                "gặp",
                "O"
            ],
            [
                "gỡ",
                "O"
            ],
            [
                "với",
                "O"
            ],
            [
                "các",
                "O"
            ],
            [
                "fans",
                "O"
            ],
            [
                "và",
                "O"
            ],
            [
                "cùng",
                "O"
            ],
            [
                "bình",
                "O"
            ],
            [
                "luận",
                "O"
            ],
            [
                "Euro",
                "B-ORG"
            ],
            [
                "tại",
                "O"
            ],
            [
                "trung",
                "O"
            ],
            [
                "tâm",
                "O"
            ],
            [
                "thương",
                "O"
            ],
            [
                "mại",
                "O"
            ],
            [
                "Emart",
                "O"
            ],
            [
                "trước",
                "O"
            ],
            [
                "khi",
                "O"
            ],
            [
                "bước",
                "O"
            ],
            [
                "vào",
                "O"
            ],
            [
                "trận",
                "O"
            ],
            [
                "đấu",
                "O"
            ],
            [
                "Clear",
                "B-ORG"
            ],
            [
                "Men",
                "I-ORG"
            ],
            [
                "-",
                "O"
            ],
            [
                "Đỉnh",
                "O"
            ],
            [
                "cao",
                "O"
            ],
            [
                "phong",
                "O"
            ],
            [
                "độ",
                "O"
            ],
            [
                "ngày",
                "B-TIME"
            ],
            [
                "26\/6",
                "I-TIME"
            ],
            [
                "tại",
                "O"
            ],
            [
                "sân",
                "O"
            ],
            [
                "vận",
                "O"
            ],
            [
                "động",
                "O"
            ],
            [
                "Quân",
                "O"
            ],
            [
                "khu",
                "O"
            ],
            [
                "7.",
                "O"
            ],
            [
                "Đội",
                "O"
            ],
            [
                "hình",
                "O"
            ],
            [
                "dự",
                "O"
            ],
            [
                "kiến",
                "O"
            ],
            [
                "như",
                "O"
            ],
            [
                "sau:",
                "O"
            ]
        ],
        [
            [
                "Đội",
                "O"
            ],
            [
                "Ronny",
                "B-ORG"
            ],
            [
                "Johnsen:",
                "I-ORG"
            ],
            [
                "Phạm",
                "I-ORG"
            ],
            [
                "Van",
                "I-ORG"
            ],
            [
                "Tiến,",
                "I-ORG"
            ],
            [
                "Trần",
                "I-ORG"
            ],
            [
                "Xuân",
                "I-ORG"
            ],
            [
                "Nghĩa,",
                "I-ORG"
            ],
            [
                "Lê",
                "I-ORG"
            ],
            [
                "Sỹ",
                "I-ORG"
            ],
            [
                "Tiến,",
                "I-ORG"
            ],
            [
                "Nguyễn",
                "I-ORG"
            ],
            [
                "Đăng",
                "I-ORG"
            ],
            [
                "Đông,",
                "I-ORG"
            ],
            [
                "Phùng",
                "I-ORG"
            ],
            [
                "Xuân",
                "I-ORG"
            ],
            [
                "Nguyên,",
                "I-ORG"
            ],
            [
                "Hoàng",
                "I-ORG"
            ],
            [
                "Nghĩa",
                "I-ORG"
            ],
            [
                "Trung,",
                "I-ORG"
            ],
            [
                "Hoàng",
                "I-ORG"
            ],
            [
                "Minh",
                "I-ORG"
            ],
            [
                "Mẫn,",
                "I-ORG"
            ],
            [
                "Nguyễn",
                "I-ORG"
            ],
            [
                "Thái",
                "I-ORG"
            ],
            [
                "Vũ,",
                "I-ORG"
            ],
            [
                "Nguyễn",
                "I-ORG"
            ],
            [
                "Văn",
                "I-ORG"
            ],
            [
                "Tài,",
                "I-ORG"
            ],
            [
                "Hồ",
                "I-ORG"
            ],
            [
                "Phước",
                "I-ORG"
            ],
            [
                "Hòa,",
                "I-ORG"
            ],
            [
                "Trần",
                "B-PER"
            ],
            [
                "Minh",
                "I-PER"
            ],
            [
                "Phụng,",
                "I-PER"
            ],
            [
                "Nguyễn",
                "B-PER"
            ],
            [
                "Tấn",
                "I-PER"
            ],
            [
                "Đạt,",
                "I-PER"
            ],
            [
                "Nguyễn",
                "B-PER"
            ],
            [
                "Minh",
                "I-PER"
            ],
            [
                "Hùng,",
                "I-PER"
            ],
            [
                "Nguyễn",
                "B-PER"
            ],
            [
                "Văn",
                "I-PER"
            ],
            [
                "Toàn,",
                "I-PER"
            ],
            [
                "Phạm",
                "B-PER"
            ],
            [
                "Anh",
                "I-PER"
            ],
            [
                "Khoa,",
                "I-PER"
            ],
            [
                "Lê",
                "B-PER"
            ],
            [
                "Văn",
                "I-PER"
            ],
            [
                "Anh.",
                "I-PER"
            ]
        ],
        [
            [
                "Đội",
                "B-PER"
            ],
            [
                "Dwight",
                "I-PER"
            ],
            [
                "Yorke:",
                "I-PER"
            ],
            [
                "Trần",
                "I-PER"
            ],
            [
                "Nguyên",
                "I-PER"
            ],
            [
                "Mạnh,",
                "I-PER"
            ],
            [
                "Nguyễn",
                "I-PER"
            ],
            [
                "Viết",
                "I-PER"
            ],
            [
                "Nam,",
                "I-PER"
            ],
            [
                "Nguyễn",
                "I-PER"
            ],
            [
                "Văn",
                "I-PER"
            ],
            [
                "Đô,",
                "I-PER"
            ],
            [
                "Nguyễn",
                "I-PER"
            ],
            [
                "Nhật",
                "I-PER"
            ],
            [
                "Anh,",
                "I-PER"
            ],
            [
                "Phan",
                "I-PER"
            ],
            [
                "Văn",
                "I-PER"
            ],
            [
                "Nam,",
                "I-PER"
            ],
            [
                "Nguyễn",
                "I-PER"
            ],
            [
                "Thế",
                "I-PER"
            ],
            [
                "Hậu,",
                "I-PER"
            ],
            [
                "Nguyễn",
                "I-PER"
            ],
            [
                "Đình",
                "I-PER"
            ],
            [
                "Anh,",
                "I-PER"
            ],
            [
                "Hoàng",
                "I-PER"
            ],
            [
                "Văn",
                "I-PER"
            ],
            [
                "Tuấn,",
                "I-PER"
            ],
            [
                "Nguyễn",
                "I-PER"
            ],
            [
                "Văn",
                "I-PER"
            ],
            [
                "Hậu,",
                "I-PER"
            ],
            [
                "Nguyễn",
                "I-PER"
            ],
            [
                "Lê",
                "I-PER"
            ],
            [
                "Thành,",
                "I-PER"
            ],
            [
                "Trần",
                "I-PER"
            ],
            [
                "Quốc",
                "I-PER"
            ],
            [
                "Bảo,",
                "I-PER"
            ],
            [
                "Nguyễn",
                "I-PER"
            ],
            [
                "Văn",
                "I-PER"
            ],
            [
                "Bạc,",
                "I-PER"
            ],
            [
                "Hồ",
                "I-ORG"
            ],
            [
                "Tuấn",
                "I-ORG"
            ],
            [
                "Tài,",
                "I-ORG"
            ],
            [
                "Ông",
                "I-ORG"
            ],
            [
                "Cao",
                "I-ORG"
            ],
            [
                "Thắng,",
                "I-ORG"
            ],
            [
                "Hà",
                "I-ORG"
            ],
            [
                "Văn",
                "I-ORG"
            ],
            [
                "Dương.",
                "I-ORG"
            ]
        ],
        [
            [
                "Trận",
                "O"
            ],
            [
                "đấu",
                "O"
            ],
            [
                "diễn",
                "O"
            ],
            [
                "ra",
                "O"
            ],
            [
                "vào",
                "O"
            ],
            [
                "lúc",
                "O"
            ],
            [
                "17h",
                "B-TIME"
            ],
            [
                "ngày",
                "I-TIME"
            ],
            [
                "26\/6",
                "I-TIME"
            ],
            [
                "tại",
                "I-TIME"
            ],
            [
                "sân",
                "I-ORG"
            ],
            [
                "vận",
                "I-ORG"
            ],
            [
                "động",
                "I-ORG"
            ],
            [
                "Quân",
                "I-ORG"
            ],
            [
                "khu",
                "I-ORG"
            ],
            [
                "7,",
                "I-ORG"
            ],
            [
                "TP",
                "I-ORG"
            ],
            [
                "HCM",
                "I-ORG"
            ],
            [
                "với",
                "O"
            ],
            [
                "sự",
                "O"
            ],
            [
                "tham",
                "O"
            ],
            [
                "gia",
                "O"
            ],
            [
                "của",
                "O"
            ],
            [
                "20",
                "O"
            ],
            [
                "gương",
                "O"
            ],
            [
                "mặt",
                "O"
            ],
            [
                "xuất",
                "O"
            ],
            [
                "sắc",
                "O"
            ],
            [
                "của",
                "O"
            ],
            [
                "bóng",
                "O"
            ],
            [
                "đá",
                "O"
            ],
            [
                "nghiệp",
                "O"
            ],
            [
                "dư",
                "O"
            ],
            [
                "và",
                "O"
            ],
            [
                "những",
                "O"
            ],
            [
                "gương",
                "O"
            ],
            [
                "mặt",
                "O"
            ],
            [
                "nổi",
                "O"
            ],
            [
                "tiếng",
                "O"
            ],
            [
                "như",
                "O"
            ],
            [
                "cựu",
                "O"
            ],
            [
                "danh",
                "O"
            ],
            [
                "thủ",
                "O"
            ],
            [
                "Dwight",
                "O"
            ],
            [
                "Yorke,",
                "O"
            ],
            [
                "Ronny",
                "O"
            ],
            [
                "Johnsen,",
                "O"
            ],
            [
                "các",
                "O"
            ],
            [
                "cầu",
                "O"
            ],
            [
                "thủ",
                "O"
            ],
            [
                "Văn",
                "B-LOC"
            ],
            [
                "Toàn,",
                "I-ORG"
            ],
            [
                "Tuấn",
                "I-ORG"
            ],
            [
                "Tài,",
                "I-ORG"
            ],
            [
                "Văn",
                "I-ORG"
            ],
            [
                "Tiến,",
                "I-ORG"
            ],
            [
                "Nguyên",
                "I-ORG"
            ],
            [
                "Mạnh",
                "I-ORG"
            ],
            [
                "và",
                "O"
            ],
            [
                "ca",
                "O"
            ],
            [
                "sĩ",
                "O"
            ],
            [
                "Ông",
                "O"
            ],
            [
                "Cao",
                "B-ORG"
            ],
            [
                "Thắng,",
                "I-ORG"
            ],
            [
                "Phạm",
                "I-ORG"
            ],
            [
                "Anh",
                "I-ORG"
            ],
            [
                "Khoa.",
                "I-ORG"
            ]
        ],
        [
            [
                "Minh",
                "B-PER"
            ],
            [
                "Hiển",
                "I-PER"
            ]
        ]
    ],
    "text": "- Các anh đánh giá thế nào về bóng đá Việt Nam?\n- Dwight Yorke: Tôi không biết nhiều về bóng đá Việt Nam. Tuy nhiên, việc đi du lịch và công tác nhiều ở châu Á cho tôi thấy, ở châu lục này rất yêu bóng đá. Họ yêu đến “cuồng”, đến tôn thờ bóng đá.\nVì vậy, tôi tin một ngày không xa, bóng đá châu Á sẽ có một đội vô địch World Cup. Và để làm được điều đó, các cầu thủ châu Á phải vượt qua suy nghĩ là cầu thủ châu Á phải to, khoẻ, cường tráng như cầu thủ ở các châu lục khác. Các bạn nên tận dụng tố chất kỹ thuật của mình. Đôi tuyển cũng cần vạch ra một chiến lược dài mới có thể mang lại thành công. \nRonny Johnsen: Bóng đá Việt Nam muốn phát triển thì hãy nhìn Ireland ở Euro lần này để học hỏi. Muốn có một đội tuyển mạnh, các bạn hãy có một huấn luyện viên phù hợp, sau đó, đưa các cầu thủ trẻ ra nước ngoài tập huấn dài hạn. Đến tuổi trưởng thành, khi các cầu thủ phát triển sự nghiệp thì đưa về tập hợp lại thành một đội tuyển quốc gia hùng mạnh.\n- Cảm giác của các anh thế nào khi lần đầu thi đấu ở Việt Nam, trong trận ra quân ngày mai tại sân vận động Quân khu 7?\n- Dwight Yorke: Tôi rất hân hạnh khi được trở lại Việt Nam và chơi bóng trong trận cầu “Đỉnh cao phong độ” theo lời mời của Clear Men. Chắc chắn ngày mai, các bạn sẽ thấy chúng tôi với một bộ mặt khác.\nBản thân tôi và Ronny Johnsen là những cầu thủ từng chơi chuyên nghiệp lâu năm nên chúng tôi rất háo thắng. Trận đấu ngày mai, đội của tôi chắc chắn sẽ giành chiến thắng. Tuy nhiên, dù kết quả có như thế nào đi chăng nữa thì tôi mong, các em đá bóng cùng chúng tôi sẽ học hỏi được điều gì đó qua trận đấu này. Hy vọng sẽ giúp các em đam mê và thành công hơn trong cuộc sống. Tôi cũng muốn nhắn nhủ với các cầu thủ nghiệp dư, những người ngày mai sẽ là đồng đội của tôi rằng: tôi đến đây để đồng hành cùng các bạn, để làm đồng đội với các bạn và các bạn hãy yên tâm tận hưởng trận đấu.\nRonny Johnsen: Tôi rất cảm ơn vì được các fans chào đón nhiệt tình khi đặt chân xuống sân bay. Điều đó làm cho tôi thấy vui với trận đấu ngày mai. Vì tôi lại được xỏ giày vào sân, cảm giác như mình sẽ trở lại với những ngày thi đấu cho Man Utd, nơi tạo dựng nên tên tuổi của tôi. Tôi mong chờ trận đấu này nhưng cũng có chút căng thẳng trước giờ xung trận. Bản thân là một trung vệ nên tôi sẽ “khoá” mọi lối vào khung thành của đối phương và sẽ không cho Dwight Yorke một cơ hội nào.\n- Không khí Euro đang sôi nổi khắp nơi. Các anh dự đoán đội nào sẽ lên ngôi trong mùa giải năm nay?\n- Dwight Yorke: Sau khi giải nghệ, tôi làm những công việc liên quan đến bóng đá, trong đó có cả bình luận viên truyền hình. Tôi không thể theo dõi hết các trận đấu Euro nhưng luôn cập nhật kết quả các trận đấu. Đây là một giải đấu hấp dẫn với những trận đấu hay. Tôi nghĩ các đội như Pháp, Tây Ban Nha, Đức sẽ tiến xa tại giải và tôi nghĩ người Đức sẽ bước lên bục vinh quang.\nRonny Johnsen: Có thể nói, Euro năm nay là một giải đấu đồng đều với những trận đấu rất cân bằng. Chẳng hạn như trận đấu sắp tới giữa Italy và Tây Ban Nha sẽ khó dự đoán. Bản thân tôi thấy Italy là đội già rơ hơn nhưng lại ủng hộ Tây Ban Nha chiến thắng. Bên cạnh đó, việc phân nhánh ở vòng knock-out khi các đội mạnh gặp nhau trước nên chắc chắn cuộc chiến từng vòng đấu sẽ khốc liệt và tôi nghĩ với kinh nghiệm cùng chiến thuật tập luyện đồng đều của các tuyển thủ, Đức sẽ lên ngôi.\n- Vậy siêu sao Ronaldo thì sao, các anh đánh giá thế nào về phong độ của anh ấy?\n- Dwight Yorke: Phong độ của cậu ta rõ ràng đi xuống sau Champions League. Có lẽ là do hậu quả của những kỳ nghỉ sau khi vô địch. Tuy nhiên, như các bạn thấy đấy, Ronaldo đã lập cú đúp để giúp đội nhà vào vòng trong, điều đó chứng tỏ anh ấy đang lấy lại phong độ. Vì thế, theo tôi, Ronaldo sẽ toả sáng ở các vòng tiếp theo như là một cầu thủ “đỉnh cao phong độ”, để giúp Bồ Đào Nha đi sâu ở giải đấu này.\nRonny Johnsen: Những gì Ronaldo thể hiện, các bạn đã thấy. Khi nào đội bóng cần thì anh ta có mặt. Những bàn thắng của anh ta đã nói lên tất cả và tôi nghĩ, khi đã “thông nòng”, Ronaldo sẽ là mối hiểm họa với bất cứ hàng thủ nào. Vì thế, phải dè chừng cậu ta nếu muốn đội nhà có một kết quả tốt.\nTrong ngày 25\/6, hai danh thủ có buổi gặp gỡ với các fans và cùng bình luận Euro tại trung tâm thương mại Emart trước khi bước vào trận đấu Clear Men - Đỉnh cao phong độ ngày 26\/6 tại sân vận động Quân khu 7. Đội hình dự kiến như sau:\nĐội Ronny Johnsen: Phạm Van Tiến, Trần Xuân Nghĩa, Lê Sỹ Tiến, Nguyễn Đăng Đông, Phùng Xuân Nguyên, Hoàng Nghĩa Trung, Hoàng Minh Mẫn, Nguyễn Thái Vũ, Nguyễn Văn Tài, Hồ Phước Hòa, Trần Minh Phụng, Nguyễn Tấn Đạt, Nguyễn Minh Hùng, Nguyễn Văn Toàn, Phạm Anh Khoa, Lê Văn Anh.\nĐội Dwight Yorke: Trần Nguyên Mạnh, Nguyễn Viết Nam, Nguyễn Văn Đô, Nguyễn Nhật Anh, Phan Văn Nam, Nguyễn Thế Hậu, Nguyễn Đình Anh, Hoàng Văn Tuấn, Nguyễn Văn Hậu, Nguyễn Lê Thành, Trần Quốc Bảo, Nguyễn Văn Bạc, Hồ Tuấn Tài, Ông Cao Thắng, Hà Văn Dương.\nTrận đấu diễn ra vào lúc 17h ngày 26\/6 tại sân vận động Quân khu 7, TP HCM với sự tham gia của 20 gương mặt xuất sắc của bóng đá nghiệp dư và những gương mặt nổi tiếng như cựu danh thủ Dwight Yorke, Ronny Johnsen, các cầu thủ Văn Toàn, Tuấn Tài, Văn Tiến, Nguyên Mạnh và ca sĩ Ông Cao Thắng, Phạm Anh Khoa. \nMinh Hiển"
}