{
    "sentences": [
        [
            [
                "Người",
                "O"
            ],
            [
                "dân",
                "O"
            ],
            [
                "hôm",
                "B-TIME"
            ],
            [
                "19\/6",
                "I-TIME"
            ],
            [
                "cầm",
                "O"
            ],
            [
                "cờ",
                "O"
            ],
            [
                "EU",
                "B-ORG"
            ],
            [
                "và",
                "O"
            ],
            [
                "cờ",
                "O"
            ],
            [
                "Anh",
                "B-LOC"
            ],
            [
                "tại",
                "O"
            ],
            [
                "một",
                "O"
            ],
            [
                "sự",
                "O"
            ],
            [
                "kiện",
                "O"
            ],
            [
                "do",
                "O"
            ],
            [
                "nhóm",
                "O"
            ],
            [
                "ủng",
                "O"
            ],
            [
                "hộ",
                "O"
            ],
            [
                "ở",
                "O"
            ],
            [
                "lại",
                "O"
            ],
            [
                "EU",
                "B-LOC"
            ],
            [
                "tổ",
                "O"
            ],
            [
                "chức",
                "O"
            ],
            [
                "ở",
                "O"
            ],
            [
                "trung",
                "O"
            ],
            [
                "tâm",
                "O"
            ],
            [
                "London.",
                "B-LOC"
            ],
            [
                "Ảnh:",
                "O"
            ],
            [
                "AFP",
                "B-ORG"
            ]
        ],
        [
            [
                "\"Chúng",
                "O"
            ],
            [
                "tôi,",
                "O"
            ],
            [
                "những",
                "O"
            ],
            [
                "người",
                "O"
            ],
            [
                "ký",
                "O"
            ],
            [
                "dưới",
                "O"
            ],
            [
                "đây,",
                "O"
            ],
            [
                "kêu",
                "O"
            ],
            [
                "gọi",
                "O"
            ],
            [
                "chính",
                "O"
            ],
            [
                "phủ",
                "O"
            ],
            [
                "Vương",
                "B-LOC"
            ],
            [
                "quốc",
                "I-LOC"
            ],
            [
                "Anh",
                "I-LOC"
            ],
            [
                "thực",
                "O"
            ],
            [
                "hiện",
                "O"
            ],
            [
                "quy",
                "O"
            ],
            [
                "định",
                "O"
            ],
            [
                "rằng",
                "O"
            ],
            [
                "nếu",
                "O"
            ],
            [
                "bên",
                "O"
            ],
            [
                "bỏ",
                "O"
            ],
            [
                "phiếu",
                "O"
            ],
            [
                "Đi",
                "O"
            ],
            [
                "hay",
                "O"
            ],
            [
                "Ở",
                "O"
            ],
            [
                "dưới",
                "O"
            ],
            [
                "60%",
                "O"
            ],
            [
                "dựa",
                "O"
            ],
            [
                "trên",
                "O"
            ],
            [
                "tỷ",
                "O"
            ],
            [
                "lệ",
                "O"
            ],
            [
                "người",
                "O"
            ],
            [
                "đi",
                "O"
            ],
            [
                "bỏ",
                "O"
            ],
            [
                "phiếu",
                "O"
            ],
            [
                "ít",
                "O"
            ],
            [
                "hơn",
                "O"
            ],
            [
                "75%",
                "O"
            ],
            [
                "dân",
                "O"
            ],
            [
                "số,",
                "O"
            ],
            [
                "cần",
                "O"
            ],
            [
                "có",
                "O"
            ],
            [
                "một",
                "O"
            ],
            [
                "cuộc",
                "O"
            ],
            [
                "trưng",
                "O"
            ],
            [
                "cầu",
                "O"
            ],
            [
                "dân",
                "O"
            ],
            [
                "ý",
                "O"
            ],
            [
                "khác\",",
                "O"
            ],
            [
                "Independent",
                "B-ORG"
            ],
            [
                "dẫn",
                "O"
            ],
            [
                "đơn",
                "O"
            ],
            [
                "kiến",
                "O"
            ],
            [
                "nghị",
                "O"
            ],
            [
                "do",
                "O"
            ],
            [
                "William",
                "B-PER"
            ],
            [
                "Oliver",
                "I-PER"
            ],
            [
                "Healey",
                "I-PER"
            ],
            [
                "lập",
                "O"
            ],
            [
                "ra",
                "O"
            ],
            [
                "cho",
                "O"
            ],
            [
                "biết.",
                "O"
            ]
        ],
        [
            [
                "Tính",
                "O"
            ],
            [
                "đến",
                "O"
            ],
            [
                "sáng",
                "O"
            ],
            [
                "nay,",
                "O"
            ],
            [
                "số",
                "O"
            ],
            [
                "người",
                "O"
            ],
            [
                "ký",
                "O"
            ],
            [
                "vào",
                "O"
            ],
            [
                "đơn",
                "O"
            ],
            [
                "kiến",
                "O"
            ],
            [
                "nghị",
                "O"
            ],
            [
                "cán",
                "O"
            ],
            [
                "mốc",
                "O"
            ],
            [
                "một",
                "O"
            ],
            [
                "triệu.",
                "O"
            ],
            [
                "Đề",
                "O"
            ],
            [
                "nghị",
                "O"
            ],
            [
                "này",
                "O"
            ],
            [
                "sáng",
                "O"
            ],
            [
                "qua",
                "O"
            ],
            [
                "có",
                "O"
            ],
            [
                "nhiều",
                "O"
            ],
            [
                "người",
                "O"
            ],
            [
                "ký",
                "O"
            ],
            [
                "đến",
                "O"
            ],
            [
                "nỗi",
                "O"
            ],
            [
                "trang",
                "O"
            ],
            [
                "web",
                "O"
            ],
            [
                "của",
                "O"
            ],
            [
                "chính",
                "O"
            ],
            [
                "phủ",
                "O"
            ],
            [
                "có",
                "O"
            ],
            [
                "lúc",
                "O"
            ],
            [
                "bị",
                "O"
            ],
            [
                "sập.",
                "O"
            ],
            [
                "Những",
                "O"
            ],
            [
                "người",
                "O"
            ],
            [
                "ký",
                "O"
            ],
            [
                "chủ",
                "O"
            ],
            [
                "yếu",
                "O"
            ],
            [
                "sống",
                "O"
            ],
            [
                "ở",
                "O"
            ],
            [
                "các",
                "O"
            ],
            [
                "thành",
                "O"
            ],
            [
                "phố",
                "O"
            ],
            [
                "London,",
                "B-LOC"
            ],
            [
                "Brighton,",
                "B-LOC"
            ],
            [
                "Oxford,",
                "B-LOC"
            ],
            [
                "Cambridge",
                "B-LOC"
            ],
            [
                "và",
                "O"
            ],
            [
                "Manchester.",
                "B-LOC"
            ]
        ],
        [
            [
                "Hiện",
                "O"
            ],
            [
                "chưa",
                "O"
            ],
            [
                "rõ",
                "O"
            ],
            [
                "nếu",
                "O"
            ],
            [
                "quy",
                "O"
            ],
            [
                "định",
                "O"
            ],
            [
                "này",
                "O"
            ],
            [
                "nếu",
                "O"
            ],
            [
                "được",
                "O"
            ],
            [
                "thiết",
                "O"
            ],
            [
                "lập",
                "O"
            ],
            [
                "và",
                "O"
            ],
            [
                "đưa",
                "O"
            ],
            [
                "vào",
                "O"
            ],
            [
                "luật",
                "O"
            ],
            [
                "của",
                "O"
            ],
            [
                "Anh",
                "B-LOC"
            ],
            [
                "có",
                "O"
            ],
            [
                "thể",
                "O"
            ],
            [
                "áp",
                "O"
            ],
            [
                "dụng",
                "O"
            ],
            [
                "với",
                "O"
            ],
            [
                "hiệu",
                "O"
            ],
            [
                "lực",
                "O"
            ],
            [
                "trở",
                "O"
            ],
            [
                "về",
                "O"
            ],
            [
                "trước",
                "O"
            ],
            [
                "hay",
                "O"
            ],
            [
                "không.",
                "O"
            ]
        ],
        [
            [
                "Kết",
                "O"
            ],
            [
                "quả",
                "O"
            ],
            [
                "cuộc",
                "O"
            ],
            [
                "trưng",
                "O"
            ],
            [
                "cầu",
                "O"
            ],
            [
                "dân",
                "O"
            ],
            [
                "ý",
                "O"
            ],
            [
                "hôm",
                "B-TIME"
            ],
            [
                "23\/6",
                "I-TIME"
            ],
            [
                "của",
                "O"
            ],
            [
                "Anh",
                "B-LOC"
            ],
            [
                "cho",
                "O"
            ],
            [
                "cho",
                "O"
            ],
            [
                "thấy",
                "O"
            ],
            [
                "có",
                "O"
            ],
            [
                "48%",
                "O"
            ],
            [
                "người",
                "O"
            ],
            [
                "ủng",
                "O"
            ],
            [
                "hộ",
                "O"
            ],
            [
                "ở",
                "O"
            ],
            [
                "lại,",
                "O"
            ],
            [
                "trong",
                "O"
            ],
            [
                "khi",
                "O"
            ],
            [
                "52%",
                "O"
            ],
            [
                "người",
                "O"
            ],
            [
                "muốn",
                "O"
            ],
            [
                "ra",
                "O"
            ],
            [
                "khỏi",
                "O"
            ],
            [
                "EU,",
                "B-LOC"
            ],
            [
                "với",
                "O"
            ],
            [
                "tỷ",
                "O"
            ],
            [
                "lệ",
                "O"
            ],
            [
                "người",
                "O"
            ],
            [
                "đi",
                "O"
            ],
            [
                "bầu",
                "O"
            ],
            [
                "72%.",
                "O"
            ],
            [
                "Kết",
                "O"
            ],
            [
                "quả",
                "O"
            ],
            [
                "làm",
                "O"
            ],
            [
                "đồng",
                "O"
            ],
            [
                "bảng",
                "O"
            ],
            [
                "Anh",
                "B-LOC"
            ],
            [
                "sụt",
                "O"
            ],
            [
                "giá",
                "O"
            ],
            [
                "xuống",
                "O"
            ],
            [
                "mức",
                "O"
            ],
            [
                "thấp",
                "O"
            ],
            [
                "nhất",
                "O"
            ],
            [
                "trong",
                "O"
            ],
            [
                "vòng",
                "O"
            ],
            [
                "ba",
                "B-TIME"
            ],
            [
                "thập",
                "I-TIME"
            ],
            [
                "kỷ",
                "I-TIME"
            ],
            [
                "và",
                "O"
            ],
            [
                "làm",
                "O"
            ],
            [
                "chao",
                "O"
            ],
            [
                "đảo",
                "O"
            ],
            [
                "Phố",
                "B-LOC"
            ],
            [
                "Wall",
                "I-LOC"
            ],
            [
                "cùng",
                "O"
            ],
            [
                "các",
                "O"
            ],
            [
                "thị",
                "O"
            ],
            [
                "trường",
                "O"
            ],
            [
                "chứng",
                "O"
            ],
            [
                "khoán",
                "O"
            ],
            [
                "trên",
                "O"
            ],
            [
                "thế",
                "O"
            ],
            [
                "giới.",
                "O"
            ],
            [
                "Kết",
                "O"
            ],
            [
                "quả",
                "O"
            ],
            [
                "cũng",
                "O"
            ],
            [
                "khiến",
                "O"
            ],
            [
                "Thủ",
                "O"
            ],
            [
                "tướng",
                "O"
            ],
            [
                "David",
                "B-PER"
            ],
            [
                "Cameron",
                "I-PER"
            ],
            [
                "từ",
                "O"
            ],
            [
                "chức",
                "O"
            ],
            [
                "trong",
                "O"
            ],
            [
                "một",
                "O"
            ],
            [
                "quyết",
                "O"
            ],
            [
                "định",
                "O"
            ],
            [
                "gây",
                "O"
            ],
            [
                "sốc.",
                "O"
            ]
        ],
        [
            [
                "Xem",
                "O"
            ],
            [
                "thêm:",
                "O"
            ],
            [
                "40.000",
                "O"
            ],
            [
                "người",
                "O"
            ],
            [
                "London",
                "B-LOC"
            ],
            [
                "đòi",
                "O"
            ],
            [
                "độc",
                "O"
            ],
            [
                "lập",
                "O"
            ],
            [
                "sau",
                "O"
            ],
            [
                "khi",
                "O"
            ],
            [
                "Anh",
                "B-LOC"
            ],
            [
                "bỏ",
                "O"
            ],
            [
                "phiếu",
                "O"
            ],
            [
                "rời",
                "O"
            ],
            [
                "EU",
                "B-LOC"
            ]
        ],
        [
            [
                "Trọng",
                "B-PER"
            ],
            [
                "Giáp",
                "I-PER"
            ]
        ]
    ],
    "text": "Người dân hôm 19\/6 cầm cờ EU và cờ Anh tại một sự kiện do nhóm ủng hộ ở lại EU tổ chức ở trung tâm London. Ảnh: AFP\n\"Chúng tôi, những người ký dưới đây, kêu gọi chính phủ Vương quốc Anh thực hiện quy định rằng nếu bên bỏ phiếu Đi hay Ở dưới 60% dựa trên tỷ lệ người đi bỏ phiếu ít hơn 75% dân số, cần có một cuộc trưng cầu dân ý khác\", Independent dẫn đơn kiến nghị do William Oliver Healey lập ra cho biết.\nTính đến sáng nay, số người ký vào đơn kiến nghị cán mốc một triệu. Đề nghị này sáng qua có nhiều người ký đến nỗi trang web của chính phủ có lúc bị sập. Những người ký chủ yếu sống ở các thành phố London, Brighton, Oxford, Cambridge và Manchester.\nHiện chưa rõ nếu quy định này nếu được thiết lập và đưa vào luật của Anh có thể áp dụng với hiệu lực trở về trước hay không. \nKết quả cuộc trưng cầu dân ý hôm 23\/6 của Anh cho cho thấy có 48% người ủng hộ ở lại, trong khi 52% người muốn ra khỏi EU, với tỷ lệ người đi bầu 72%. Kết quả làm đồng bảng Anh sụt giá xuống mức thấp nhất trong vòng ba thập kỷ và làm chao đảo Phố Wall cùng các thị trường chứng khoán trên thế giới. Kết quả cũng khiến Thủ tướng David Cameron từ chức trong một quyết định gây sốc. \nXem thêm: 40.000 người London đòi độc lập sau khi Anh bỏ phiếu rời EU\nTrọng Giáp"
}